TKLL_TEAM_11.sim/sim_1/synth/timing/xsim/simulate.log
Time resolution is 1 ps
Memory initialized.
Time: 0 | PC_out: x | Opcode: xxx | Operand: zzzzz | Accumulator: z | ALU_Result: z | Instr: zz | Data_Mem: zz | Wr_En: z | Mux_Sel: x | PC_En: x | SKZ: z | JUMP: z
Time: 0 | PC_out: 0 | Opcode: 000 | Operand: zzzzz | Accumulator: z | ALU_Result: z | Instr: zz | Data_Mem: zz | Wr_En: z | Mux_Sel: x | PC_En: x | SKZ: z | JUMP: z
Time: 5000 | PC_out: 0 | Opcode: 000 | Operand: zzzzz | Accumulator: z | ALU_Result: z | Instr: zz | Data_Mem: zz | Wr_En: z | Mux_Sel: 0 | PC_En: x | SKZ: z | JUMP: z
Time: 5000 | PC_out: 0 | Opcode: 000 | Operand: zzzzz | Accumulator: z | ALU_Result: z | Instr: zz | Data_Mem: zz | Wr_En: z | Mux_Sel: 0 | PC_En: 0 | SKZ: z | JUMP: z
Time: 118000 | PC_out: 0 | Opcode: 000 | Operand: zzzzz | Accumulator: z | ALU_Result: z | Instr: zz | Data_Mem: zz | Wr_En: z | Mux_Sel: 1 | PC_En: 0 | SKZ: z | JUMP: z
Time: 132000 | PC_out: 0 | Opcode: 111 | Operand: zzzzz | Accumulator: z | ALU_Result: z | Instr: zz | Data_Mem: zz | Wr_En: z | Mux_Sel: 1 | PC_En: 0 | SKZ: z | JUMP: z
WARNING: "D:/Vivado/2024.1/data/verilog/src/unisims/FDPE.v" Line 168: Timing violation in scope /RISC_CPU_tb/uut/CTRL/imem_enable_reg/TChk168_1747 at time 133008 ps $setuphold (posedge C,negedge D,(0:0:0),(0:0:0),notifier,in_clk_enable_p,in_clk_enable_p,C_dly,D_dly)  $setup violation detected. Time: 133008 ps, Data Event Time Stamp: -9223372036854775807 ps, Ref Event Time Stamp: 132934 ps, Limit: -60 ps
WARNING: "D:/Vivado/2024.1/data/verilog/src/unisims/FDPE.v" Line 168: Timing violation in scope /RISC_CPU_tb/uut/CTRL/imem_enable_reg/TChk168_1747 at time 133008 ps $setuphold (posedge C,negedge D,(0:0:0),(0:0:0),notifier,in_clk_enable_p,in_clk_enable_p,C_dly,D_dly)  $hold violation detected. Time: 133008 ps, Ref Event Time Stamp: 132934 ps, Data Event Time Stamp: 133008 ps, Limit: 262 ps
Time: 138000 | PC_out: 0 | Opcode: 111 | Operand: zzzzz | Accumulator: z | ALU_Result: z | Instr: zz | Data_Mem: zz | Wr_En: z | Mux_Sel: 0 | PC_En: 0 | SKZ: z | JUMP: z
Time: 178000 | PC_out: 0 | Opcode: 111 | Operand: zzzzz | Accumulator: z | ALU_Result: z | Instr: zz | Data_Mem: zz | Wr_En: z | Mux_Sel: 0 | PC_En: 1 | SKZ: z | JUMP: z
Time: 192000 | PC_out: 30 | Opcode: 111 | Operand: zzzzz | Accumulator: z | ALU_Result: z | Instr: zz | Data_Mem: zz | Wr_En: z | Mux_Sel: 0 | PC_En: 1 | SKZ: z | JUMP: z
Time: 198000 | PC_out: 30 | Opcode: 111 | Operand: zzzzz | Accumulator: z | ALU_Result: z | Instr: zz | Data_Mem: zz | Wr_En: z | Mux_Sel: 1 | PC_En: 1 | SKZ: z | JUMP: z
Time: 198000 | PC_out: 30 | Opcode: 111 | Operand: zzzzz | Accumulator: z | ALU_Result: z | Instr: zz | Data_Mem: zz | Wr_En: z | Mux_Sel: 1 | PC_En: 0 | SKZ: z | JUMP: z
WARNING: "D:/Vivado/2024.1/data/verilog/src/unisims/FDPE.v" Line 168: Timing violation in scope /RISC_CPU_tb/uut/CTRL/imem_enable_reg/TChk168_1747 at time 213008 ps $setuphold (posedge C,negedge D,(0:0:0),(0:0:0),notifier,in_clk_enable_p,in_clk_enable_p,C_dly,D_dly)  $setup violation detected. Time: 213008 ps, Data Event Time Stamp: 153200 ps, Ref Event Time Stamp: 212934 ps, Limit: -60 ps
WARNING: "D:/Vivado/2024.1/data/verilog/src/unisims/FDPE.v" Line 168: Timing violation in scope /RISC_CPU_tb/uut/CTRL/imem_enable_reg/TChk168_1747 at time 213008 ps $setuphold (posedge C,negedge D,(0:0:0),(0:0:0),notifier,in_clk_enable_p,in_clk_enable_p,C_dly,D_dly)  $hold violation detected. Time: 213008 ps, Ref Event Time Stamp: 212934 ps, Data Event Time Stamp: 213008 ps, Limit: 262 ps
Time: 218000 | PC_out: 30 | Opcode: 111 | Operand: zzzzz | Accumulator: z | ALU_Result: z | Instr: zz | Data_Mem: zz | Wr_En: z | Mux_Sel: 0 | PC_En: 0 | SKZ: z | JUMP: z
Time: 258000 | PC_out: 30 | Opcode: 111 | Operand: zzzzz | Accumulator: z | ALU_Result: z | Instr: zz | Data_Mem: zz | Wr_En: z | Mux_Sel: 0 | PC_En: 1 | SKZ: z | JUMP: z
Time: 272000 | PC_out: 3 | Opcode: 111 | Operand: zzzzz | Accumulator: z | ALU_Result: z | Instr: zz | Data_Mem: zz | Wr_En: z | Mux_Sel: 0 | PC_En: 1 | SKZ: z | JUMP: z
Time: 278000 | PC_out: 3 | Opcode: 111 | Operand: zzzzz | Accumulator: z | ALU_Result: z | Instr: zz | Data_Mem: zz | Wr_En: z | Mux_Sel: 1 | PC_En: 1 | SKZ: z | JUMP: z
Time: 278000 | PC_out: 3 | Opcode: 111 | Operand: zzzzz | Accumulator: z | ALU_Result: z | Instr: zz | Data_Mem: zz | Wr_En: z | Mux_Sel: 1 | PC_En: 0 | SKZ: z | JUMP: z
WARNING: "D:/Vivado/2024.1/data/verilog/src/unisims/FDPE.v" Line 168: Timing violation in scope /RISC_CPU_tb/uut/CTRL/imem_enable_reg/TChk168_1747 at time 293008 ps $setuphold (posedge C,negedge D,(0:0:0),(0:0:0),notifier,in_clk_enable_p,in_clk_enable_p,C_dly,D_dly)  $setup violation detected. Time: 293008 ps, Data Event Time Stamp: 233200 ps, Ref Event Time Stamp: 292934 ps, Limit: -60 ps
WARNING: "D:/Vivado/2024.1/data/verilog/src/unisims/FDPE.v" Line 168: Timing violation in scope /RISC_CPU_tb/uut/CTRL/imem_enable_reg/TChk168_1747 at time 293008 ps $setuphold (posedge C,negedge D,(0:0:0),(0:0:0),notifier,in_clk_enable_p,in_clk_enable_p,C_dly,D_dly)  $hold violation detected. Time: 293008 ps, Ref Event Time Stamp: 292934 ps, Data Event Time Stamp: 293008 ps, Limit: 262 ps
Time: 298000 | PC_out: 3 | Opcode: 111 | Operand: zzzzz | Accumulator: z | ALU_Result: z | Instr: zz | Data_Mem: zz | Wr_En: z | Mux_Sel: 0 | PC_En: 0 | SKZ: z | JUMP: z
Time: 312000 | PC_out: 3 | Opcode: 101 | Operand: zzzzz | Accumulator: z | ALU_Result: z | Instr: zz | Data_Mem: zz | Wr_En: z | Mux_Sel: 0 | PC_En: 0 | SKZ: z | JUMP: z
WARNING: "D:/Vivado/2024.1/data/verilog/src/unisims/FDCE.v" Line 170: Timing violation in scope /RISC_CPU_tb/uut/CTRL/alu_enable_reg/TChk170_591 at time 333157 ps $setuphold (posedge C,posedge D,(0:0:0),(0:0:0),notifier,in_clk_enable_p,in_clk_enable_p,C_dly,D_dly)  $setup violation detected. Time: 333157 ps, Data Event Time Stamp: -9223372036854775807 ps, Ref Event Time Stamp: 332934 ps, Limit: -60 ps
WARNING: "D:/Vivado/2024.1/data/verilog/src/unisims/FDCE.v" Line 170: Timing violation in scope /RISC_CPU_tb/uut/CTRL/alu_enable_reg/TChk170_591 at time 333157 ps $setuphold (posedge C,posedge D,(0:0:0),(0:0:0),notifier,in_clk_enable_p,in_clk_enable_p,C_dly,D_dly)  $hold violation detected. Time: 333157 ps, Ref Event Time Stamp: 332934 ps, Data Event Time Stamp: 333157 ps, Limit: 262 ps
WARNING: "D:/Vivado/2024.1/data/verilog/src/unisims/FDPE.v" Line 168: Timing violation in scope /RISC_CPU_tb/uut/CTRL/imem_enable_reg/TChk168_1747 at time 353008 ps $setuphold (posedge C,negedge D,(0:0:0),(0:0:0),notifier,in_clk_enable_p,in_clk_enable_p,C_dly,D_dly)  $setup violation detected. Time: 353008 ps, Data Event Time Stamp: 313200 ps, Ref Event Time Stamp: 352934 ps, Limit: -60 ps
WARNING: "D:/Vivado/2024.1/data/verilog/src/unisims/FDPE.v" Line 168: Timing violation in scope /RISC_CPU_tb/uut/CTRL/imem_enable_reg/TChk168_1747 at time 353008 ps $setuphold (posedge C,negedge D,(0:0:0),(0:0:0),notifier,in_clk_enable_p,in_clk_enable_p,C_dly,D_dly)  $hold violation detected. Time: 353008 ps, Ref Event Time Stamp: 352934 ps, Data Event Time Stamp: 353008 ps, Limit: 262 ps
WARNING: "D:/Vivado/2024.1/data/verilog/src/unisims/FDCE.v" Line 168: Timing violation in scope /RISC_CPU_tb/uut/CTRL/alu_enable_reg/TChk168_589 at time 353157 ps $setuphold (posedge C,negedge D,(0:0:0),(0:0:0),notifier,in_clk_enable_p,in_clk_enable_p,C_dly,D_dly)  $setup violation detected. Time: 353157 ps, Data Event Time Stamp: -9223372036854775807 ps, Ref Event Time Stamp: 352934 ps, Limit: -60 ps
WARNING: "D:/Vivado/2024.1/data/verilog/src/unisims/FDCE.v" Line 168: Timing violation in scope /RISC_CPU_tb/uut/CTRL/alu_enable_reg/TChk168_589 at time 353157 ps $setuphold (posedge C,negedge D,(0:0:0),(0:0:0),notifier,in_clk_enable_p,in_clk_enable_p,C_dly,D_dly)  $hold violation detected. Time: 353157 ps, Ref Event Time Stamp: 352934 ps, Data Event Time Stamp: 353157 ps, Limit: 262 ps
WARNING: "D:/Vivado/2024.1/data/verilog/src/unisims/FDPE.v" Line 170: Timing violation in scope /RISC_CPU_tb/uut/CTRL/imem_enable_reg/TChk170_1749 at time 373008 ps $setuphold (posedge C,posedge D,(0:0:0),(0:0:0),notifier,in_clk_enable_p,in_clk_enable_p,C_dly,D_dly)  $setup violation detected. Time: 373008 ps, Data Event Time Stamp: 313471 ps, Ref Event Time Stamp: 372934 ps, Limit: -60 ps
WARNING: "D:/Vivado/2024.1/data/verilog/src/unisims/FDPE.v" Line 170: Timing violation in scope /RISC_CPU_tb/uut/CTRL/imem_enable_reg/TChk170_1749 at time 373008 ps $setuphold (posedge C,posedge D,(0:0:0),(0:0:0),notifier,in_clk_enable_p,in_clk_enable_p,C_dly,D_dly)  $hold violation detected. Time: 373008 ps, Ref Event Time Stamp: 372934 ps, Data Event Time Stamp: 373008 ps, Limit: 262 ps
Time: 378000 | PC_out: 3 | Opcode: 101 | Operand: zzzzz | Accumulator: z | ALU_Result: z | Instr: zz | Data_Mem: zz | Wr_En: z | Mux_Sel: 1 | PC_En: 0 | SKZ: z | JUMP: z
Time: 378000 | PC_out: 3 | Opcode: 101 | Operand: zzzzz | Accumulator: z | ALU_Result: z | Instr: zz | Data_Mem: zz | Wr_En: z | Mux_Sel: 1 | PC_En: 1 | SKZ: z | JUMP: z
Time: 392000 | PC_out: 4 | Opcode: 101 | Operand: zzzzz | Accumulator: z | ALU_Result: z | Instr: zz | Data_Mem: zz | Wr_En: z | Mux_Sel: 1 | PC_En: 1 | SKZ: z | JUMP: z
WARNING: "D:/Vivado/2024.1/data/verilog/src/unisims/FDPE.v" Line 168: Timing violation in scope /RISC_CPU_tb/uut/CTRL/imem_enable_reg/TChk168_1747 at time 393008 ps $setuphold (posedge C,negedge D,(0:0:0),(0:0:0),notifier,in_clk_enable_p,in_clk_enable_p,C_dly,D_dly)  $setup violation detected. Time: 393008 ps, Data Event Time Stamp: 353008 ps, Ref Event Time Stamp: 392934 ps, Limit: -60 ps
WARNING: "D:/Vivado/2024.1/data/verilog/src/unisims/FDPE.v" Line 168: Timing violation in scope /RISC_CPU_tb/uut/CTRL/imem_enable_reg/TChk168_1747 at time 393008 ps $setuphold (posedge C,negedge D,(0:0:0),(0:0:0),notifier,in_clk_enable_p,in_clk_enable_p,C_dly,D_dly)  $hold violation detected. Time: 393008 ps, Ref Event Time Stamp: 392934 ps, Data Event Time Stamp: 393008 ps, Limit: 262 ps
Time: 398000 | PC_out: 4 | Opcode: 101 | Operand: zzzzz | Accumulator: z | ALU_Result: z | Instr: zz | Data_Mem: zz | Wr_En: z | Mux_Sel: 0 | PC_En: 1 | SKZ: z | JUMP: z
Time: 398000 | PC_out: 4 | Opcode: 101 | Operand: zzzzz | Accumulator: z | ALU_Result: z | Instr: zz | Data_Mem: zz | Wr_En: z | Mux_Sel: 0 | PC_En: 0 | SKZ: z | JUMP: z
WARNING: "D:/Vivado/2024.1/data/verilog/src/unisims/FDCE.v" Line 170: Timing violation in scope /RISC_CPU_tb/uut/CTRL/alu_enable_reg/TChk170_591 at time 433157 ps $setuphold (posedge C,posedge D,(0:0:0),(0:0:0),notifier,in_clk_enable_p,in_clk_enable_p,C_dly,D_dly)  $setup violation detected. Time: 433157 ps, Data Event Time Stamp: 333157 ps, Ref Event Time Stamp: 432934 ps, Limit: -60 ps
WARNING: "D:/Vivado/2024.1/data/verilog/src/unisims/FDCE.v" Line 170: Timing violation in scope /RISC_CPU_tb/uut/CTRL/alu_enable_reg/TChk170_591 at time 433157 ps $setuphold (posedge C,posedge D,(0:0:0),(0:0:0),notifier,in_clk_enable_p,in_clk_enable_p,C_dly,D_dly)  $hold violation detected. Time: 433157 ps, Ref Event Time Stamp: 432934 ps, Data Event Time Stamp: 433157 ps, Limit: 262 ps
WARNING: "D:/Vivado/2024.1/data/verilog/src/unisims/FDPE.v" Line 168: Timing violation in scope /RISC_CPU_tb/uut/CTRL/imem_enable_reg/TChk168_1747 at time 453008 ps $setuphold (posedge C,negedge D,(0:0:0),(0:0:0),notifier,in_clk_enable_p,in_clk_enable_p,C_dly,D_dly)  $setup violation detected. Time: 453008 ps, Data Event Time Stamp: 413200 ps, Ref Event Time Stamp: 452934 ps, Limit: -60 ps
WARNING: "D:/Vivado/2024.1/data/verilog/src/unisims/FDPE.v" Line 168: Timing violation in scope /RISC_CPU_tb/uut/CTRL/imem_enable_reg/TChk168_1747 at time 453008 ps $setuphold (posedge C,negedge D,(0:0:0),(0:0:0),notifier,in_clk_enable_p,in_clk_enable_p,C_dly,D_dly)  $hold violation detected. Time: 453008 ps, Ref Event Time Stamp: 452934 ps, Data Event Time Stamp: 453008 ps, Limit: 262 ps
WARNING: "D:/Vivado/2024.1/data/verilog/src/unisims/FDCE.v" Line 168: Timing violation in scope /RISC_CPU_tb/uut/CTRL/alu_enable_reg/TChk168_589 at time 453157 ps $setuphold (posedge C,negedge D,(0:0:0),(0:0:0),notifier,in_clk_enable_p,in_clk_enable_p,C_dly,D_dly)  $setup violation detected. Time: 453157 ps, Data Event Time Stamp: 353157 ps, Ref Event Time Stamp: 452934 ps, Limit: -60 ps
WARNING: "D:/Vivado/2024.1/data/verilog/src/unisims/FDCE.v" Line 168: Timing violation in scope /RISC_CPU_tb/uut/CTRL/alu_enable_reg/TChk168_589 at time 453157 ps $setuphold (posedge C,negedge D,(0:0:0),(0:0:0),notifier,in_clk_enable_p,in_clk_enable_p,C_dly,D_dly)  $hold violation detected. Time: 453157 ps, Ref Event Time Stamp: 452934 ps, Data Event Time Stamp: 453157 ps, Limit: 262 ps
WARNING: "D:/Vivado/2024.1/data/verilog/src/unisims/FDPE.v" Line 170: Timing violation in scope /RISC_CPU_tb/uut/CTRL/imem_enable_reg/TChk170_1749 at time 473008 ps $setuphold (posedge C,posedge D,(0:0:0),(0:0:0),notifier,in_clk_enable_p,in_clk_enable_p,C_dly,D_dly)  $setup violation detected. Time: 473008 ps, Data Event Time Stamp: 413471 ps, Ref Event Time Stamp: 472934 ps, Limit: -60 ps
WARNING: "D:/Vivado/2024.1/data/verilog/src/unisims/FDPE.v" Line 170: Timing violation in scope /RISC_CPU_tb/uut/CTRL/imem_enable_reg/TChk170_1749 at time 473008 ps $setuphold (posedge C,posedge D,(0:0:0),(0:0:0),notifier,in_clk_enable_p,in_clk_enable_p,C_dly,D_dly)  $hold violation detected. Time: 473008 ps, Ref Event Time Stamp: 472934 ps, Data Event Time Stamp: 473008 ps, Limit: 262 ps
Time: 478000 | PC_out: 4 | Opcode: 101 | Operand: zzzzz | Accumulator: z | ALU_Result: z | Instr: zz | Data_Mem: zz | Wr_En: z | Mux_Sel: 1 | PC_En: 0 | SKZ: z | JUMP: z
Time: 478000 | PC_out: 4 | Opcode: 101 | Operand: zzzzz | Accumulator: z | ALU_Result: z | Instr: zz | Data_Mem: zz | Wr_En: z | Mux_Sel: 1 | PC_En: 1 | SKZ: z | JUMP: z
Time: 492000 | PC_out: 5 | Opcode: 101 | Operand: zzzzz | Accumulator: z | ALU_Result: z | Instr: zz | Data_Mem: zz | Wr_En: z | Mux_Sel: 1 | PC_En: 1 | SKZ: z | JUMP: z
WARNING: "D:/Vivado/2024.1/data/verilog/src/unisims/FDPE.v" Line 168: Timing violation in scope /RISC_CPU_tb/uut/CTRL/imem_enable_reg/TChk168_1747 at time 493008 ps $setuphold (posedge C,negedge D,(0:0:0),(0:0:0),notifier,in_clk_enable_p,in_clk_enable_p,C_dly,D_dly)  $setup violation detected. Time: 493008 ps, Data Event Time Stamp: 453008 ps, Ref Event Time Stamp: 492934 ps, Limit: -60 ps
WARNING: "D:/Vivado/2024.1/data/verilog/src/unisims/FDPE.v" Line 168: Timing violation in scope /RISC_CPU_tb/uut/CTRL/imem_enable_reg/TChk168_1747 at time 493008 ps $setuphold (posedge C,negedge D,(0:0:0),(0:0:0),notifier,in_clk_enable_p,in_clk_enable_p,C_dly,D_dly)  $hold violation detected. Time: 493008 ps, Ref Event Time Stamp: 492934 ps, Data Event Time Stamp: 493008 ps, Limit: 262 ps
Time: 498000 | PC_out: 5 | Opcode: 101 | Operand: zzzzz | Accumulator: z | ALU_Result: z | Instr: zz | Data_Mem: zz | Wr_En: z | Mux_Sel: 0 | PC_En: 1 | SKZ: z | JUMP: z
Time: 498000 | PC_out: 5 | Opcode: 101 | Operand: zzzzz | Accumulator: z | ALU_Result: z | Instr: zz | Data_Mem: zz | Wr_En: z | Mux_Sel: 0 | PC_En: 0 | SKZ: z | JUMP: z
Time: 512000 | PC_out: 5 | Opcode: 001 | Operand: zzzzz | Accumulator: z | ALU_Result: z | Instr: zz | Data_Mem: zz | Wr_En: z | Mux_Sel: 0 | PC_En: 0 | SKZ: z | JUMP: z
Time: 538000 | PC_out: 5 | Opcode: 001 | Operand: zzzzz | Accumulator: z | ALU_Result: z | Instr: zz | Data_Mem: zz | Wr_En: z | Mux_Sel: 1 | PC_En: 0 | SKZ: z | JUMP: z
Time: 538000 | PC_out: 5 | Opcode: 001 | Operand: zzzzz | Accumulator: z | ALU_Result: z | Instr: zz | Data_Mem: zz | Wr_En: z | Mux_Sel: 1 | PC_En: 1 | SKZ: z | JUMP: z
Time: 552000 | PC_out: 7 | Opcode: 001 | Operand: zzzzz | Accumulator: z | ALU_Result: z | Instr: zz | Data_Mem: zz | Wr_En: z | Mux_Sel: 1 | PC_En: 1 | SKZ: z | JUMP: z
Time: 558000 | PC_out: 7 | Opcode: 001 | Operand: zzzzz | Accumulator: z | ALU_Result: z | Instr: zz | Data_Mem: zz | Wr_En: z | Mux_Sel: 1 | PC_En: 0 | SKZ: z | JUMP: z
Time: 572000 | PC_out: 7 | Opcode: 000 | Operand: zzzzz | Accumulator: z | ALU_Result: z | Instr: zz | Data_Mem: zz | Wr_En: z | Mux_Sel: 1 | PC_En: 0 | SKZ: z | JUMP: z
WARNING: "D:/Vivado/2024.1/data/verilog/src/unisims/FDPE.v" Line 168: Timing violation in scope /RISC_CPU_tb/uut/CTRL/imem_enable_reg/TChk168_1747 at time 573008 ps $setuphold (posedge C,negedge D,(0:0:0),(0:0:0),notifier,in_clk_enable_p,in_clk_enable_p,C_dly,D_dly)  $setup violation detected. Time: 573008 ps, Data Event Time Stamp: 513200 ps, Ref Event Time Stamp: 572934 ps, Limit: -60 ps
WARNING: "D:/Vivado/2024.1/data/verilog/src/unisims/FDPE.v" Line 168: Timing violation in scope /RISC_CPU_tb/uut/CTRL/imem_enable_reg/TChk168_1747 at time 573008 ps $setuphold (posedge C,negedge D,(0:0:0),(0:0:0),notifier,in_clk_enable_p,in_clk_enable_p,C_dly,D_dly)  $hold violation detected. Time: 573008 ps, Ref Event Time Stamp: 572934 ps, Data Event Time Stamp: 573008 ps, Limit: 262 ps
Time: 578000 | PC_out: 7 | Opcode: 000 | Operand: zzzzz | Accumulator: z | ALU_Result: z | Instr: zz | Data_Mem: zz | Wr_En: z | Mux_Sel: 0 | PC_En: 0 | SKZ: z | JUMP: z
Time: 592000 | PC_out: 7 | Opcode: 001 | Operand: zzzzz | Accumulator: z | ALU_Result: z | Instr: zz | Data_Mem: zz | Wr_En: z | Mux_Sel: 0 | PC_En: 0 | SKZ: z | JUMP: z
Time: 638000 | PC_out: 7 | Opcode: 001 | Operand: zzzzz | Accumulator: z | ALU_Result: z | Instr: zz | Data_Mem: zz | Wr_En: z | Mux_Sel: 1 | PC_En: 0 | SKZ: z | JUMP: z
Time: 638000 | PC_out: 7 | Opcode: 001 | Operand: zzzzz | Accumulator: z | ALU_Result: z | Instr: zz | Data_Mem: zz | Wr_En: z | Mux_Sel: 1 | PC_En: 1 | SKZ: z | JUMP: z
Time: 652000 | PC_out: 9 | Opcode: 001 | Operand: zzzzz | Accumulator: z | ALU_Result: z | Instr: zz | Data_Mem: zz | Wr_En: z | Mux_Sel: 1 | PC_En: 1 | SKZ: z | JUMP: z
Time: 658000 | PC_out: 9 | Opcode: 001 | Operand: zzzzz | Accumulator: z | ALU_Result: z | Instr: zz | Data_Mem: zz | Wr_En: z | Mux_Sel: 1 | PC_En: 0 | SKZ: z | JUMP: z
WARNING: "D:/Vivado/2024.1/data/verilog/src/unisims/FDPE.v" Line 168: Timing violation in scope /RISC_CPU_tb/uut/CTRL/imem_enable_reg/TChk168_1747 at time 673008 ps $setuphold (posedge C,negedge D,(0:0:0),(0:0:0),notifier,in_clk_enable_p,in_clk_enable_p,C_dly,D_dly)  $setup violation detected. Time: 673008 ps, Data Event Time Stamp: 613200 ps, Ref Event Time Stamp: 672934 ps, Limit: -60 ps
WARNING: "D:/Vivado/2024.1/data/verilog/src/unisims/FDPE.v" Line 168: Timing violation in scope /RISC_CPU_tb/uut/CTRL/imem_enable_reg/TChk168_1747 at time 673008 ps $setuphold (posedge C,negedge D,(0:0:0),(0:0:0),notifier,in_clk_enable_p,in_clk_enable_p,C_dly,D_dly)  $hold violation detected. Time: 673008 ps, Ref Event Time Stamp: 672934 ps, Data Event Time Stamp: 673008 ps, Limit: 262 ps
Time: 678000 | PC_out: 9 | Opcode: 001 | Operand: zzzzz | Accumulator: z | ALU_Result: z | Instr: zz | Data_Mem: zz | Wr_En: z | Mux_Sel: 0 | PC_En: 0 | SKZ: z | JUMP: z
Time: 692000 | PC_out: 9 | Opcode: 000 | Operand: zzzzz | Accumulator: z | ALU_Result: z | Instr: zz | Data_Mem: zz | Wr_En: z | Mux_Sel: 0 | PC_En: 0 | SKZ: z | JUMP: z
WARNING: "D:/Vivado/2024.1/data/verilog/src/unisims/FDCE.v" Line 170: Timing violation in scope /RISC_CPU_tb/uut/CTRL/alu_enable_reg/TChk170_591 at time 713157 ps $setuphold (posedge C,posedge D,(0:0:0),(0:0:0),notifier,in_clk_enable_p,in_clk_enable_p,C_dly,D_dly)  $setup violation detected. Time: 713157 ps, Data Event Time Stamp: 433157 ps, Ref Event Time Stamp: 712934 ps, Limit: -60 ps
WARNING: "D:/Vivado/2024.1/data/verilog/src/unisims/FDCE.v" Line 170: Timing violation in scope /RISC_CPU_tb/uut/CTRL/alu_enable_reg/TChk170_591 at time 713157 ps $setuphold (posedge C,posedge D,(0:0:0),(0:0:0),notifier,in_clk_enable_p,in_clk_enable_p,C_dly,D_dly)  $hold violation detected. Time: 713157 ps, Ref Event Time Stamp: 712934 ps, Data Event Time Stamp: 713157 ps, Limit: 262 ps
WARNING: "D:/Vivado/2024.1/data/verilog/src/unisims/FDPE.v" Line 168: Timing violation in scope /RISC_CPU_tb/uut/CTRL/imem_enable_reg/TChk168_1747 at time 733008 ps $setuphold (posedge C,negedge D,(0:0:0),(0:0:0),notifier,in_clk_enable_p,in_clk_enable_p,C_dly,D_dly)  $setup violation detected. Time: 733008 ps, Data Event Time Stamp: 693200 ps, Ref Event Time Stamp: 732934 ps, Limit: -60 ps
WARNING: "D:/Vivado/2024.1/data/verilog/src/unisims/FDPE.v" Line 168: Timing violation in scope /RISC_CPU_tb/uut/CTRL/imem_enable_reg/TChk168_1747 at time 733008 ps $setuphold (posedge C,negedge D,(0:0:0),(0:0:0),notifier,in_clk_enable_p,in_clk_enable_p,C_dly,D_dly)  $hold violation detected. Time: 733008 ps, Ref Event Time Stamp: 732934 ps, Data Event Time Stamp: 733008 ps, Limit: 262 ps
WARNING: "D:/Vivado/2024.1/data/verilog/src/unisims/FDCE.v" Line 168: Timing violation in scope /RISC_CPU_tb/uut/CTRL/alu_enable_reg/TChk168_589 at time 733157 ps $setuphold (posedge C,negedge D,(0:0:0),(0:0:0),notifier,in_clk_enable_p,in_clk_enable_p,C_dly,D_dly)  $setup violation detected. Time: 733157 ps, Data Event Time Stamp: 453157 ps, Ref Event Time Stamp: 732934 ps, Limit: -60 ps
WARNING: "D:/Vivado/2024.1/data/verilog/src/unisims/FDCE.v" Line 168: Timing violation in scope /RISC_CPU_tb/uut/CTRL/alu_enable_reg/TChk168_589 at time 733157 ps $setuphold (posedge C,negedge D,(0:0:0),(0:0:0),notifier,in_clk_enable_p,in_clk_enable_p,C_dly,D_dly)  $hold violation detected. Time: 733157 ps, Ref Event Time Stamp: 732934 ps, Data Event Time Stamp: 733157 ps, Limit: 262 ps
WARNING: "D:/Vivado/2024.1/data/verilog/src/unisims/FDPE.v" Line 170: Timing violation in scope /RISC_CPU_tb/uut/CTRL/imem_enable_reg/TChk170_1749 at time 753008 ps $setuphold (posedge C,posedge D,(0:0:0),(0:0:0),notifier,in_clk_enable_p,in_clk_enable_p,C_dly,D_dly)  $setup violation detected. Time: 753008 ps, Data Event Time Stamp: 693471 ps, Ref Event Time Stamp: 752934 ps, Limit: -60 ps
WARNING: "D:/Vivado/2024.1/data/verilog/src/unisims/FDPE.v" Line 170: Timing violation in scope /RISC_CPU_tb/uut/CTRL/imem_enable_reg/TChk170_1749 at time 753008 ps $setuphold (posedge C,posedge D,(0:0:0),(0:0:0),notifier,in_clk_enable_p,in_clk_enable_p,C_dly,D_dly)  $hold violation detected. Time: 753008 ps, Ref Event Time Stamp: 752934 ps, Data Event Time Stamp: 753008 ps, Limit: 262 ps
Time: 758000 | PC_out: 9 | Opcode: 000 | Operand: zzzzz | Accumulator: z | ALU_Result: z | Instr: zz | Data_Mem: zz | Wr_En: z | Mux_Sel: 1 | PC_En: 0 | SKZ: z | JUMP: z
Time: 758000 | PC_out: 9 | Opcode: 000 | Operand: zzzzz | Accumulator: z | ALU_Result: z | Instr: zz | Data_Mem: zz | Wr_En: z | Mux_Sel: 1 | PC_En: 1 | SKZ: z | JUMP: z
Time: 772000 | PC_out: 10 | Opcode: 000 | Operand: zzzzz | Accumulator: z | ALU_Result: z | Instr: zz | Data_Mem: zz | Wr_En: z | Mux_Sel: 1 | PC_En: 1 | SKZ: z | JUMP: z
WARNING: "D:/Vivado/2024.1/data/verilog/src/unisims/FDPE.v" Line 168: Timing violation in scope /RISC_CPU_tb/uut/CTRL/imem_enable_reg/TChk168_1747 at time 773008 ps $setuphold (posedge C,negedge D,(0:0:0),(0:0:0),notifier,in_clk_enable_p,in_clk_enable_p,C_dly,D_dly)  $setup violation detected. Time: 773008 ps, Data Event Time Stamp: 733008 ps, Ref Event Time Stamp: 772934 ps, Limit: -60 ps
WARNING: "D:/Vivado/2024.1/data/verilog/src/unisims/FDPE.v" Line 168: Timing violation in scope /RISC_CPU_tb/uut/CTRL/imem_enable_reg/TChk168_1747 at time 773008 ps $setuphold (posedge C,negedge D,(0:0:0),(0:0:0),notifier,in_clk_enable_p,in_clk_enable_p,C_dly,D_dly)  $hold violation detected. Time: 773008 ps, Ref Event Time Stamp: 772934 ps, Data Event Time Stamp: 773008 ps, Limit: 262 ps
Time: 778000 | PC_out: 10 | Opcode: 000 | Operand: zzzzz | Accumulator: z | ALU_Result: z | Instr: zz | Data_Mem: zz | Wr_En: z | Mux_Sel: 0 | PC_En: 1 | SKZ: z | JUMP: z
Time: 778000 | PC_out: 10 | Opcode: 000 | Operand: zzzzz | Accumulator: z | ALU_Result: z | Instr: zz | Data_Mem: zz | Wr_En: z | Mux_Sel: 0 | PC_En: 0 | SKZ: z | JUMP: z
