TKLL_TEAM_11.sim/sim_1/impl/timing/xsim/simulate.log
Time resolution is 1 ps
Memory initialized.
Time: 0 | PC_out: x | Opcode: xxx | Operand: zzzzz | Accumulator: z | ALU_Result: z | Instr: zz | Data_Mem: zz | Wr_En: z | Mux_Sel: x | PC_En: x | SKZ: z | JUMP: z
Time: 0 | PC_out: 0 | Opcode: 000 | Operand: zzzzz | Accumulator: z | ALU_Result: z | Instr: zz | Data_Mem: zz | Wr_En: z | Mux_Sel: x | PC_En: x | SKZ: z | JUMP: z
Time: 6000 | PC_out: 0 | Opcode: 000 | Operand: zzzzz | Accumulator: z | ALU_Result: z | Instr: zz | Data_Mem: zz | Wr_En: z | Mux_Sel: x | PC_En: 0 | SKZ: z | JUMP: z
Time: 6000 | PC_out: 0 | Opcode: 000 | Operand: zzzzz | Accumulator: z | ALU_Result: z | Instr: zz | Data_Mem: zz | Wr_En: z | Mux_Sel: 0 | PC_En: 0 | SKZ: z | JUMP: z
Time: 138000 | PC_out: 0 | Opcode: 111 | Operand: zzzzz | Accumulator: z | ALU_Result: z | Instr: zz | Data_Mem: zz | Wr_En: z | Mux_Sel: 0 | PC_En: 0 | SKZ: z | JUMP: z
Time: 207000 | PC_out: 0 | Opcode: 111 | Operand: zzzzz | Accumulator: z | ALU_Result: z | Instr: zz | Data_Mem: zz | Wr_En: z | Mux_Sel: 1 | PC_En: 0 | SKZ: z | JUMP: z
Time: 207000 | PC_out: 0 | Opcode: 111 | Operand: zzzzz | Accumulator: z | ALU_Result: z | Instr: zz | Data_Mem: zz | Wr_En: z | Mux_Sel: 1 | PC_En: 1 | SKZ: z | JUMP: z
Time: 228000 | PC_out: 1 | Opcode: 111 | Operand: zzzzz | Accumulator: z | ALU_Result: z | Instr: zz | Data_Mem: zz | Wr_En: z | Mux_Sel: 1 | PC_En: 1 | SKZ: z | JUMP: z
Time: 237000 | PC_out: 1 | Opcode: 111 | Operand: zzzzz | Accumulator: z | ALU_Result: z | Instr: zz | Data_Mem: zz | Wr_En: z | Mux_Sel: 0 | PC_En: 1 | SKZ: z | JUMP: z
Time: 237000 | PC_out: 1 | Opcode: 111 | Operand: zzzzz | Accumulator: z | ALU_Result: z | Instr: zz | Data_Mem: zz | Wr_En: z | Mux_Sel: 0 | PC_En: 0 | SKZ: z | JUMP: z
Time: 288000 | PC_out: 1 | Opcode: 000 | Operand: zzzzz | Accumulator: z | ALU_Result: z | Instr: zz | Data_Mem: zz | Wr_En: z | Mux_Sel: 0 | PC_En: 0 | SKZ: z | JUMP: z
WARNING: "D:/Vivado/2024.1/data/verilog/src/unisims/FDPE.v" Line 168: Timing violation in scope /RISC_CPU_tb/uut/CTRL/dmem_enable_reg/TChk168_1750 at time 290346 ps $setuphold (posedge C,negedge D,(0:0:0),(0:0:0),notifier,in_clk_enable_p,in_clk_enable_p,C_dly,D_dly)  $hold violation detected. Time: 290346 ps, Ref Event Time Stamp: 290303 ps, Data Event Time Stamp: 290346 ps, Limit: 241 ps
WARNING: "D:/Vivado/2024.1/data/verilog/src/unisims/FDCE.v" Line 170: Timing violation in scope /RISC_CPU_tb/uut/CTRL/pc_enable_reg/TChk170_591 at time 350423 ps $setuphold (posedge C,posedge D,(0:0:0),(0:0:0),notifier,in_clk_enable_p,in_clk_enable_p,C_dly,D_dly)  $setup violation detected. Time: 350423 ps, Data Event Time Stamp: 170886 ps, Ref Event Time Stamp: 350303 ps, Limit: -45 ps
WARNING: "D:/Vivado/2024.1/data/verilog/src/unisims/FDCE.v" Line 170: Timing violation in scope /RISC_CPU_tb/uut/CTRL/pc_enable_reg/TChk170_591 at time 350423 ps $setuphold (posedge C,posedge D,(0:0:0),(0:0:0),notifier,in_clk_enable_p,in_clk_enable_p,C_dly,D_dly)  $hold violation detected. Time: 350423 ps, Ref Event Time Stamp: 350303 ps, Data Event Time Stamp: 350423 ps, Limit: 241 ps
WARNING: "D:/Vivado/2024.1/data/verilog/src/unisims/FDCE.v" Line 170: Timing violation in scope /RISC_CPU_tb/uut/CTRL/mux_select_reg/TChk170_591 at time 350465 ps $setuphold (posedge C,posedge D,(0:0:0),(0:0:0),notifier,in_clk_enable_p,in_clk_enable_p,C_dly,D_dly)  $setup violation detected. Time: 350465 ps, Data Event Time Stamp: 200628 ps, Ref Event Time Stamp: 350303 ps, Limit: -45 ps
WARNING: "D:/Vivado/2024.1/data/verilog/src/unisims/FDCE.v" Line 170: Timing violation in scope /RISC_CPU_tb/uut/CTRL/mux_select_reg/TChk170_591 at time 350465 ps $setuphold (posedge C,posedge D,(0:0:0),(0:0:0),notifier,in_clk_enable_p,in_clk_enable_p,C_dly,D_dly)  $hold violation detected. Time: 350465 ps, Ref Event Time Stamp: 350303 ps, Data Event Time Stamp: 350465 ps, Limit: 241 ps
Time: 357000 | PC_out: 1 | Opcode: 000 | Operand: zzzzz | Accumulator: z | ALU_Result: z | Instr: zz | Data_Mem: zz | Wr_En: z | Mux_Sel: 1 | PC_En: 0 | SKZ: z | JUMP: z
Time: 357000 | PC_out: 1 | Opcode: 000 | Operand: zzzzz | Accumulator: z | ALU_Result: z | Instr: zz | Data_Mem: zz | Wr_En: z | Mux_Sel: 1 | PC_En: 1 | SKZ: z | JUMP: z
WARNING: "D:/Vivado/2024.1/data/verilog/src/unisims/FDCE.v" Line 168: Timing violation in scope /RISC_CPU_tb/uut/CTRL/pc_enable_reg/TChk168_589 at time 380423 ps $setuphold (posedge C,negedge D,(0:0:0),(0:0:0),notifier,in_clk_enable_p,in_clk_enable_p,C_dly,D_dly)  $setup violation detected. Time: 380423 ps, Data Event Time Stamp: 200886 ps, Ref Event Time Stamp: 380303 ps, Limit: -45 ps
WARNING: "D:/Vivado/2024.1/data/verilog/src/unisims/FDCE.v" Line 168: Timing violation in scope /RISC_CPU_tb/uut/CTRL/pc_enable_reg/TChk168_589 at time 380423 ps $setuphold (posedge C,negedge D,(0:0:0),(0:0:0),notifier,in_clk_enable_p,in_clk_enable_p,C_dly,D_dly)  $hold violation detected. Time: 380423 ps, Ref Event Time Stamp: 380303 ps, Data Event Time Stamp: 380423 ps, Limit: 241 ps
WARNING: "D:/Vivado/2024.1/data/verilog/src/unisims/FDCE.v" Line 168: Timing violation in scope /RISC_CPU_tb/uut/CTRL/mux_select_reg/TChk168_589 at time 380465 ps $setuphold (posedge C,negedge D,(0:0:0),(0:0:0),notifier,in_clk_enable_p,in_clk_enable_p,C_dly,D_dly)  $setup violation detected. Time: 380465 ps, Data Event Time Stamp: 230628 ps, Ref Event Time Stamp: 380303 ps, Limit: -45 ps
WARNING: "D:/Vivado/2024.1/data/verilog/src/unisims/FDCE.v" Line 168: Timing violation in scope /RISC_CPU_tb/uut/CTRL/mux_select_reg/TChk168_589 at time 380465 ps $setuphold (posedge C,negedge D,(0:0:0),(0:0:0),notifier,in_clk_enable_p,in_clk_enable_p,C_dly,D_dly)  $hold violation detected. Time: 380465 ps, Ref Event Time Stamp: 380303 ps, Data Event Time Stamp: 380465 ps, Limit: 241 ps
Time: 387000 | PC_out: 1 | Opcode: 000 | Operand: zzzzz | Accumulator: z | ALU_Result: z | Instr: zz | Data_Mem: zz | Wr_En: z | Mux_Sel: 0 | PC_En: 1 | SKZ: z | JUMP: z
Time: 387000 | PC_out: 1 | Opcode: 000 | Operand: zzzzz | Accumulator: z | ALU_Result: z | Instr: zz | Data_Mem: zz | Wr_En: z | Mux_Sel: 0 | PC_En: 0 | SKZ: z | JUMP: z
Time: 408000 | PC_out: 2 | Opcode: 000 | Operand: zzzzz | Accumulator: z | ALU_Result: z | Instr: zz | Data_Mem: zz | Wr_En: z | Mux_Sel: 0 | PC_En: 0 | SKZ: z | JUMP: z
Time: 438000 | PC_out: 3 | Opcode: 000 | Operand: zzzzz | Accumulator: z | ALU_Result: z | Instr: zz | Data_Mem: zz | Wr_En: z | Mux_Sel: 0 | PC_En: 0 | SKZ: z | JUMP: z
Time: 468000 | PC_out: 4 | Opcode: 000 | Operand: zzzzz | Accumulator: z | ALU_Result: z | Instr: zz | Data_Mem: zz | Wr_En: z | Mux_Sel: 0 | PC_En: 0 | SKZ: z | JUMP: z
Time: 498000 | PC_out: 5 | Opcode: 101 | Operand: zzzzz | Accumulator: z | ALU_Result: z | Instr: zz | Data_Mem: zz | Wr_En: z | Mux_Sel: 0 | PC_En: 0 | SKZ: z | JUMP: z
Time: 528000 | PC_out: 5 | Opcode: 001 | Operand: zzzzz | Accumulator: z | ALU_Result: z | Instr: zz | Data_Mem: zz | Wr_En: z | Mux_Sel: 0 | PC_En: 0 | SKZ: z | JUMP: z
Time: 567000 | PC_out: 5 | Opcode: 001 | Operand: zzzzz | Accumulator: z | ALU_Result: z | Instr: zz | Data_Mem: zz | Wr_En: z | Mux_Sel: 1 | PC_En: 0 | SKZ: z | JUMP: z
Time: 567000 | PC_out: 5 | Opcode: 001 | Operand: zzzzz | Accumulator: z | ALU_Result: z | Instr: zz | Data_Mem: zz | Wr_En: z | Mux_Sel: 1 | PC_En: 1 | SKZ: z | JUMP: z
Time: 588000 | PC_out: 6 | Opcode: 001 | Operand: zzzzz | Accumulator: z | ALU_Result: z | Instr: zz | Data_Mem: zz | Wr_En: z | Mux_Sel: 1 | PC_En: 1 | SKZ: z | JUMP: z
Time: 597000 | PC_out: 6 | Opcode: 001 | Operand: zzzzz | Accumulator: z | ALU_Result: z | Instr: zz | Data_Mem: zz | Wr_En: z | Mux_Sel: 0 | PC_En: 1 | SKZ: z | JUMP: z
Time: 597000 | PC_out: 6 | Opcode: 001 | Operand: zzzzz | Accumulator: z | ALU_Result: z | Instr: zz | Data_Mem: zz | Wr_En: z | Mux_Sel: 0 | PC_En: 0 | SKZ: z | JUMP: z
Time: 618000 | PC_out: 6 | Opcode: 000 | Operand: zzzzz | Accumulator: z | ALU_Result: z | Instr: zz | Data_Mem: zz | Wr_En: z | Mux_Sel: 0 | PC_En: 0 | SKZ: z | JUMP: z
Time: 648000 | PC_out: 6 | Opcode: 101 | Operand: zzzzz | Accumulator: z | ALU_Result: z | Instr: zz | Data_Mem: zz | Wr_En: z | Mux_Sel: 0 | PC_En: 0 | SKZ: z | JUMP: z
WARNING: "D:/Vivado/2024.1/data/verilog/src/unisims/FDCE.v" Line 170: Timing violation in scope /RISC_CPU_tb/uut/CTRL/pc_enable_reg/TChk170_591 at time 740423 ps $setuphold (posedge C,posedge D,(0:0:0),(0:0:0),notifier,in_clk_enable_p,in_clk_enable_p,C_dly,D_dly)  $setup violation detected. Time: 740423 ps, Data Event Time Stamp: 530886 ps, Ref Event Time Stamp: 740303 ps, Limit: -45 ps
WARNING: "D:/Vivado/2024.1/data/verilog/src/unisims/FDCE.v" Line 170: Timing violation in scope /RISC_CPU_tb/uut/CTRL/pc_enable_reg/TChk170_591 at time 740423 ps $setuphold (posedge C,posedge D,(0:0:0),(0:0:0),notifier,in_clk_enable_p,in_clk_enable_p,C_dly,D_dly)  $hold violation detected. Time: 740423 ps, Ref Event Time Stamp: 740303 ps, Data Event Time Stamp: 740423 ps, Limit: 241 ps
WARNING: "D:/Vivado/2024.1/data/verilog/src/unisims/FDCE.v" Line 170: Timing violation in scope /RISC_CPU_tb/uut/CTRL/mux_select_reg/TChk170_591 at time 740465 ps $setuphold (posedge C,posedge D,(0:0:0),(0:0:0),notifier,in_clk_enable_p,in_clk_enable_p,C_dly,D_dly)  $setup violation detected. Time: 740465 ps, Data Event Time Stamp: 531843 ps, Ref Event Time Stamp: 740303 ps, Limit: -45 ps
WARNING: "D:/Vivado/2024.1/data/verilog/src/unisims/FDCE.v" Line 170: Timing violation in scope /RISC_CPU_tb/uut/CTRL/mux_select_reg/TChk170_591 at time 740465 ps $setuphold (posedge C,posedge D,(0:0:0),(0:0:0),notifier,in_clk_enable_p,in_clk_enable_p,C_dly,D_dly)  $hold violation detected. Time: 740465 ps, Ref Event Time Stamp: 740303 ps, Data Event Time Stamp: 740465 ps, Limit: 241 ps
Time: 747000 | PC_out: 6 | Opcode: 101 | Operand: zzzzz | Accumulator: z | ALU_Result: z | Instr: zz | Data_Mem: zz | Wr_En: z | Mux_Sel: 1 | PC_En: 0 | SKZ: z | JUMP: z
Time: 747000 | PC_out: 6 | Opcode: 101 | Operand: zzzzz | Accumulator: z | ALU_Result: z | Instr: zz | Data_Mem: zz | Wr_En: z | Mux_Sel: 1 | PC_En: 1 | SKZ: z | JUMP: z
WARNING: "D:/Vivado/2024.1/data/verilog/src/unisims/FDCE.v" Line 168: Timing violation in scope /RISC_CPU_tb/uut/CTRL/pc_enable_reg/TChk168_589 at time 770423 ps $setuphold (posedge C,negedge D,(0:0:0),(0:0:0),notifier,in_clk_enable_p,in_clk_enable_p,C_dly,D_dly)  $setup violation detected. Time: 770423 ps, Data Event Time Stamp: 560886 ps, Ref Event Time Stamp: 770303 ps, Limit: -45 ps
WARNING: "D:/Vivado/2024.1/data/verilog/src/unisims/FDCE.v" Line 168: Timing violation in scope /RISC_CPU_tb/uut/CTRL/pc_enable_reg/TChk168_589 at time 770423 ps $setuphold (posedge C,negedge D,(0:0:0),(0:0:0),notifier,in_clk_enable_p,in_clk_enable_p,C_dly,D_dly)  $hold violation detected. Time: 770423 ps, Ref Event Time Stamp: 770303 ps, Data Event Time Stamp: 770423 ps, Limit: 241 ps
WARNING: "D:/Vivado/2024.1/data/verilog/src/unisims/FDCE.v" Line 168: Timing violation in scope /RISC_CPU_tb/uut/CTRL/mux_select_reg/TChk168_589 at time 770465 ps $setuphold (posedge C,negedge D,(0:0:0),(0:0:0),notifier,in_clk_enable_p,in_clk_enable_p,C_dly,D_dly)  $setup violation detected. Time: 770465 ps, Data Event Time Stamp: 590973 ps, Ref Event Time Stamp: 770303 ps, Limit: -45 ps
WARNING: "D:/Vivado/2024.1/data/verilog/src/unisims/FDCE.v" Line 168: Timing violation in scope /RISC_CPU_tb/uut/CTRL/mux_select_reg/TChk168_589 at time 770465 ps $setuphold (posedge C,negedge D,(0:0:0),(0:0:0),notifier,in_clk_enable_p,in_clk_enable_p,C_dly,D_dly)  $hold violation detected. Time: 770465 ps, Ref Event Time Stamp: 770303 ps, Data Event Time Stamp: 770465 ps, Limit: 241 ps
Time: 777000 | PC_out: 6 | Opcode: 101 | Operand: zzzzz | Accumulator: z | ALU_Result: z | Instr: zz | Data_Mem: zz | Wr_En: z | Mux_Sel: 0 | PC_En: 1 | SKZ: z | JUMP: z
Time: 777000 | PC_out: 6 | Opcode: 101 | Operand: zzzzz | Accumulator: z | ALU_Result: z | Instr: zz | Data_Mem: zz | Wr_En: z | Mux_Sel: 0 | PC_En: 0 | SKZ: z | JUMP: z
Time: 798000 | PC_out: 7 | Opcode: 101 | Operand: zzzzz | Accumulator: z | ALU_Result: z | Instr: zz | Data_Mem: zz | Wr_En: z | Mux_Sel: 0 | PC_En: 0 | SKZ: z | JUMP: z
WARNING: "D:/Vivado/2024.1/data/verilog/src/unisims/FDCE.v" Line 170: Timing violation in scope /RISC_CPU_tb/uut/CTRL/pc_enable_reg/TChk170_591 at time 890423 ps $setuphold (posedge C,posedge D,(0:0:0),(0:0:0),notifier,in_clk_enable_p,in_clk_enable_p,C_dly,D_dly)  $setup violation detected. Time: 890423 ps, Data Event Time Stamp: 740423 ps, Ref Event Time Stamp: 890303 ps, Limit: -45 ps
WARNING: "D:/Vivado/2024.1/data/verilog/src/unisims/FDCE.v" Line 170: Timing violation in scope /RISC_CPU_tb/uut/CTRL/pc_enable_reg/TChk170_591 at time 890423 ps $setuphold (posedge C,posedge D,(0:0:0),(0:0:0),notifier,in_clk_enable_p,in_clk_enable_p,C_dly,D_dly)  $hold violation detected. Time: 890423 ps, Ref Event Time Stamp: 890303 ps, Data Event Time Stamp: 890423 ps, Limit: 241 ps
WARNING: "D:/Vivado/2024.1/data/verilog/src/unisims/FDCE.v" Line 170: Timing violation in scope /RISC_CPU_tb/uut/CTRL/mux_select_reg/TChk170_591 at time 890465 ps $setuphold (posedge C,posedge D,(0:0:0),(0:0:0),notifier,in_clk_enable_p,in_clk_enable_p,C_dly,D_dly)  $setup violation detected. Time: 890465 ps, Data Event Time Stamp: 740465 ps, Ref Event Time Stamp: 890303 ps, Limit: -45 ps
WARNING: "D:/Vivado/2024.1/data/verilog/src/unisims/FDCE.v" Line 170: Timing violation in scope /RISC_CPU_tb/uut/CTRL/mux_select_reg/TChk170_591 at time 890465 ps $setuphold (posedge C,posedge D,(0:0:0),(0:0:0),notifier,in_clk_enable_p,in_clk_enable_p,C_dly,D_dly)  $hold violation detected. Time: 890465 ps, Ref Event Time Stamp: 890303 ps, Data Event Time Stamp: 890465 ps, Limit: 241 ps
Time: 897000 | PC_out: 7 | Opcode: 101 | Operand: zzzzz | Accumulator: z | ALU_Result: z | Instr: zz | Data_Mem: zz | Wr_En: z | Mux_Sel: 1 | PC_En: 0 | SKZ: z | JUMP: z
Time: 897000 | PC_out: 7 | Opcode: 101 | Operand: zzzzz | Accumulator: z | ALU_Result: z | Instr: zz | Data_Mem: zz | Wr_En: z | Mux_Sel: 1 | PC_En: 1 | SKZ: z | JUMP: z
WARNING: "D:/Vivado/2024.1/data/verilog/src/unisims/FDCE.v" Line 168: Timing violation in scope /RISC_CPU_tb/uut/CTRL/pc_enable_reg/TChk168_589 at time 920423 ps $setuphold (posedge C,negedge D,(0:0:0),(0:0:0),notifier,in_clk_enable_p,in_clk_enable_p,C_dly,D_dly)  $setup violation detected. Time: 920423 ps, Data Event Time Stamp: 770423 ps, Ref Event Time Stamp: 920303 ps, Limit: -45 ps
WARNING: "D:/Vivado/2024.1/data/verilog/src/unisims/FDCE.v" Line 168: Timing violation in scope /RISC_CPU_tb/uut/CTRL/pc_enable_reg/TChk168_589 at time 920423 ps $setuphold (posedge C,negedge D,(0:0:0),(0:0:0),notifier,in_clk_enable_p,in_clk_enable_p,C_dly,D_dly)  $hold violation detected. Time: 920423 ps, Ref Event Time Stamp: 920303 ps, Data Event Time Stamp: 920423 ps, Limit: 241 ps
WARNING: "D:/Vivado/2024.1/data/verilog/src/unisims/FDCE.v" Line 168: Timing violation in scope /RISC_CPU_tb/uut/CTRL/mux_select_reg/TChk168_589 at time 920465 ps $setuphold (posedge C,negedge D,(0:0:0),(0:0:0),notifier,in_clk_enable_p,in_clk_enable_p,C_dly,D_dly)  $setup violation detected. Time: 920465 ps, Data Event Time Stamp: 770465 ps, Ref Event Time Stamp: 920303 ps, Limit: -45 ps
WARNING: "D:/Vivado/2024.1/data/verilog/src/unisims/FDCE.v" Line 168: Timing violation in scope /RISC_CPU_tb/uut/CTRL/mux_select_reg/TChk168_589 at time 920465 ps $setuphold (posedge C,negedge D,(0:0:0),(0:0:0),notifier,in_clk_enable_p,in_clk_enable_p,C_dly,D_dly)  $hold violation detected. Time: 920465 ps, Ref Event Time Stamp: 920303 ps, Data Event Time Stamp: 920465 ps, Limit: 241 ps
Time: 927000 | PC_out: 7 | Opcode: 101 | Operand: zzzzz | Accumulator: z | ALU_Result: z | Instr: zz | Data_Mem: zz | Wr_En: z | Mux_Sel: 0 | PC_En: 1 | SKZ: z | JUMP: z
Time: 927000 | PC_out: 7 | Opcode: 101 | Operand: zzzzz | Accumulator: z | ALU_Result: z | Instr: zz | Data_Mem: zz | Wr_En: z | Mux_Sel: 0 | PC_En: 0 | SKZ: z | JUMP: z
Time: 948000 | PC_out: 8 | Opcode: 101 | Operand: zzzzz | Accumulator: z | ALU_Result: z | Instr: zz | Data_Mem: zz | Wr_En: z | Mux_Sel: 0 | PC_En: 0 | SKZ: z | JUMP: z
Time: 978000 | PC_out: 8 | Opcode: 001 | Operand: zzzzz | Accumulator: z | ALU_Result: z | Instr: zz | Data_Mem: zz | Wr_En: z | Mux_Sel: 0 | PC_En: 0 | SKZ: z | JUMP: z
