TKLL_NHOM11-good_testbench/TKLL_TEAM_11.sim/sim_1/synth/timing/xsim/simulate.log
Time resolution is 1 ps
Memory initialized.
Time: 0 | PC_out: x | Opcode: xxx | Operand: zzzzz | Accumulator: z | ALU_Result: z | Instr: zz | Data_Mem: zz | Wr_En: z | Mux_Sel: x | PC_En: x | SKZ: z | JUMP: z
Time: 0 | PC_out: 0 | Opcode: 000 | Operand: zzzzz | Accumulator: z | ALU_Result: z | Instr: zz | Data_Mem: zz | Wr_En: z | Mux_Sel: x | PC_En: x | SKZ: z | JUMP: z
Time: 5000 | PC_out: 0 | Opcode: 000 | Operand: zzzzz | Accumulator: z | ALU_Result: z | Instr: zz | Data_Mem: zz | Wr_En: z | Mux_Sel: 0 | PC_En: x | SKZ: z | JUMP: z
Time: 5000 | PC_out: 0 | Opcode: 000 | Operand: zzzzz | Accumulator: z | ALU_Result: z | Instr: zz | Data_Mem: zz | Wr_En: z | Mux_Sel: 0 | PC_En: 0 | SKZ: z | JUMP: z
Time: 113000 | PC_out: 0 | Opcode: 000 | Operand: zzzzz | Accumulator: z | ALU_Result: z | Instr: zz | Data_Mem: zz | Wr_En: z | Mux_Sel: 1 | PC_En: 0 | SKZ: z | JUMP: z
Time: 117000 | PC_out: 0 | Opcode: 111 | Operand: zzzzz | Accumulator: z | ALU_Result: z | Instr: zz | Data_Mem: zz | Wr_En: z | Mux_Sel: 1 | PC_En: 0 | SKZ: z | JUMP: z
Time: 123000 | PC_out: 0 | Opcode: 111 | Operand: zzzzz | Accumulator: z | ALU_Result: z | Instr: zz | Data_Mem: zz | Wr_En: z | Mux_Sel: 0 | PC_En: 0 | SKZ: z | JUMP: z
Time: 153000 | PC_out: 0 | Opcode: 111 | Operand: zzzzz | Accumulator: z | ALU_Result: z | Instr: zz | Data_Mem: zz | Wr_En: z | Mux_Sel: 0 | PC_En: 1 | SKZ: z | JUMP: z
Time: 157000 | PC_out: 30 | Opcode: 111 | Operand: zzzzz | Accumulator: z | ALU_Result: z | Instr: zz | Data_Mem: zz | Wr_En: z | Mux_Sel: 0 | PC_En: 1 | SKZ: z | JUMP: z
Time: 163000 | PC_out: 30 | Opcode: 111 | Operand: zzzzz | Accumulator: z | ALU_Result: z | Instr: zz | Data_Mem: zz | Wr_En: z | Mux_Sel: 1 | PC_En: 1 | SKZ: z | JUMP: z
Time: 163000 | PC_out: 30 | Opcode: 111 | Operand: zzzzz | Accumulator: z | ALU_Result: z | Instr: zz | Data_Mem: zz | Wr_En: z | Mux_Sel: 1 | PC_En: 0 | SKZ: z | JUMP: z
Time: 173000 | PC_out: 30 | Opcode: 111 | Operand: zzzzz | Accumulator: z | ALU_Result: z | Instr: zz | Data_Mem: zz | Wr_En: z | Mux_Sel: 0 | PC_En: 0 | SKZ: z | JUMP: z
Time: 203000 | PC_out: 30 | Opcode: 111 | Operand: zzzzz | Accumulator: z | ALU_Result: z | Instr: zz | Data_Mem: zz | Wr_En: z | Mux_Sel: 0 | PC_En: 1 | SKZ: z | JUMP: z
Time: 207000 | PC_out: 3 | Opcode: 111 | Operand: zzzzz | Accumulator: z | ALU_Result: z | Instr: zz | Data_Mem: zz | Wr_En: z | Mux_Sel: 0 | PC_En: 1 | SKZ: z | JUMP: z
Time: 213000 | PC_out: 3 | Opcode: 111 | Operand: zzzzz | Accumulator: z | ALU_Result: z | Instr: zz | Data_Mem: zz | Wr_En: z | Mux_Sel: 1 | PC_En: 1 | SKZ: z | JUMP: z
Time: 213000 | PC_out: 3 | Opcode: 111 | Operand: zzzzz | Accumulator: z | ALU_Result: z | Instr: zz | Data_Mem: zz | Wr_En: z | Mux_Sel: 1 | PC_En: 0 | SKZ: z | JUMP: z
Time: 223000 | PC_out: 3 | Opcode: 111 | Operand: zzzzz | Accumulator: z | ALU_Result: z | Instr: zz | Data_Mem: zz | Wr_En: z | Mux_Sel: 0 | PC_En: 0 | SKZ: z | JUMP: z
Time: 237000 | PC_out: 3 | Opcode: 101 | Operand: zzzzz | Accumulator: z | ALU_Result: z | Instr: zz | Data_Mem: zz | Wr_En: z | Mux_Sel: 0 | PC_En: 0 | SKZ: z | JUMP: z
WARNING: "D:/Vivado/2024.1/data/verilog/src/unisims/FDPE.v" Line 170: Timing violation in scope /RISC_CPU_tb/uut/CTRL/imem_enable_reg/TChk170_2199 at time 268165 ps $setuphold (posedge C,posedge D,(0:0:0),(0:0:0),notifier,in_clk_enable_p,in_clk_enable_p,C_dly,D_dly)  $setup violation detected. Time: 268165 ps, Data Event Time Stamp: 198595 ps, Ref Event Time Stamp: 267934 ps, Limit: -60 ps
WARNING: "D:/Vivado/2024.1/data/verilog/src/unisims/FDPE.v" Line 170: Timing violation in scope /RISC_CPU_tb/uut/CTRL/imem_enable_reg/TChk170_2199 at time 268165 ps $setuphold (posedge C,posedge D,(0:0:0),(0:0:0),notifier,in_clk_enable_p,in_clk_enable_p,C_dly,D_dly)  $hold violation detected. Time: 268165 ps, Ref Event Time Stamp: 267934 ps, Data Event Time Stamp: 268165 ps, Limit: 262 ps
Time: 273000 | PC_out: 3 | Opcode: 101 | Operand: zzzzz | Accumulator: z | ALU_Result: z | Instr: zz | Data_Mem: zz | Wr_En: z | Mux_Sel: 1 | PC_En: 0 | SKZ: z | JUMP: z
Time: 273000 | PC_out: 3 | Opcode: 101 | Operand: zzzzz | Accumulator: z | ALU_Result: z | Instr: zz | Data_Mem: zz | Wr_En: z | Mux_Sel: 1 | PC_En: 1 | SKZ: z | JUMP: z
Time: 277000 | PC_out: 4 | Opcode: 101 | Operand: zzzzz | Accumulator: z | ALU_Result: z | Instr: zz | Data_Mem: zz | Wr_En: z | Mux_Sel: 1 | PC_En: 1 | SKZ: z | JUMP: z
Time: 283000 | PC_out: 4 | Opcode: 101 | Operand: zzzzz | Accumulator: z | ALU_Result: z | Instr: zz | Data_Mem: zz | Wr_En: z | Mux_Sel: 0 | PC_En: 1 | SKZ: z | JUMP: z
Time: 283000 | PC_out: 4 | Opcode: 101 | Operand: zzzzz | Accumulator: z | ALU_Result: z | Instr: zz | Data_Mem: zz | Wr_En: z | Mux_Sel: 0 | PC_En: 0 | SKZ: z | JUMP: z
WARNING: "D:/Vivado/2024.1/data/verilog/src/unisims/FDPE.v" Line 170: Timing violation in scope /RISC_CPU_tb/uut/CTRL/imem_enable_reg/TChk170_2199 at time 328165 ps $setuphold (posedge C,posedge D,(0:0:0),(0:0:0),notifier,in_clk_enable_p,in_clk_enable_p,C_dly,D_dly)  $setup violation detected. Time: 328165 ps, Data Event Time Stamp: 268165 ps, Ref Event Time Stamp: 327934 ps, Limit: -60 ps
WARNING: "D:/Vivado/2024.1/data/verilog/src/unisims/FDPE.v" Line 170: Timing violation in scope /RISC_CPU_tb/uut/CTRL/imem_enable_reg/TChk170_2199 at time 328165 ps $setuphold (posedge C,posedge D,(0:0:0),(0:0:0),notifier,in_clk_enable_p,in_clk_enable_p,C_dly,D_dly)  $hold violation detected. Time: 328165 ps, Ref Event Time Stamp: 327934 ps, Data Event Time Stamp: 328165 ps, Limit: 262 ps
Time: 333000 | PC_out: 4 | Opcode: 101 | Operand: zzzzz | Accumulator: z | ALU_Result: z | Instr: zz | Data_Mem: zz | Wr_En: z | Mux_Sel: 1 | PC_En: 0 | SKZ: z | JUMP: z
Time: 333000 | PC_out: 4 | Opcode: 101 | Operand: zzzzz | Accumulator: z | ALU_Result: z | Instr: zz | Data_Mem: zz | Wr_En: z | Mux_Sel: 1 | PC_En: 1 | SKZ: z | JUMP: z
Time: 337000 | PC_out: 5 | Opcode: 101 | Operand: zzzzz | Accumulator: z | ALU_Result: z | Instr: zz | Data_Mem: zz | Wr_En: z | Mux_Sel: 1 | PC_En: 1 | SKZ: z | JUMP: z
Time: 343000 | PC_out: 5 | Opcode: 101 | Operand: zzzzz | Accumulator: z | ALU_Result: z | Instr: zz | Data_Mem: zz | Wr_En: z | Mux_Sel: 0 | PC_En: 1 | SKZ: z | JUMP: z
Time: 343000 | PC_out: 5 | Opcode: 101 | Operand: zzzzz | Accumulator: z | ALU_Result: z | Instr: zz | Data_Mem: zz | Wr_En: z | Mux_Sel: 0 | PC_En: 0 | SKZ: z | JUMP: z
Time: 357000 | PC_out: 5 | Opcode: 001 | Operand: zzzzz | Accumulator: z | ALU_Result: z | Instr: zz | Data_Mem: zz | Wr_En: z | Mux_Sel: 0 | PC_En: 0 | SKZ: z | JUMP: z
Time: 373000 | PC_out: 5 | Opcode: 001 | Operand: zzzzz | Accumulator: z | ALU_Result: z | Instr: zz | Data_Mem: zz | Wr_En: z | Mux_Sel: 1 | PC_En: 0 | SKZ: z | JUMP: z
Time: 373000 | PC_out: 5 | Opcode: 001 | Operand: zzzzz | Accumulator: z | ALU_Result: z | Instr: zz | Data_Mem: zz | Wr_En: z | Mux_Sel: 1 | PC_En: 1 | SKZ: z | JUMP: z
Time: 377000 | PC_out: 7 | Opcode: 001 | Operand: zzzzz | Accumulator: z | ALU_Result: z | Instr: zz | Data_Mem: zz | Wr_En: z | Mux_Sel: 1 | PC_En: 1 | SKZ: z | JUMP: z
Time: 383000 | PC_out: 7 | Opcode: 001 | Operand: zzzzz | Accumulator: z | ALU_Result: z | Instr: zz | Data_Mem: zz | Wr_En: z | Mux_Sel: 1 | PC_En: 0 | SKZ: z | JUMP: z
Time: 393000 | PC_out: 7 | Opcode: 001 | Operand: zzzzz | Accumulator: z | ALU_Result: z | Instr: zz | Data_Mem: zz | Wr_En: z | Mux_Sel: 0 | PC_En: 0 | SKZ: z | JUMP: z
Time: 397000 | PC_out: 7 | Opcode: 000 | Operand: zzzzz | Accumulator: z | ALU_Result: z | Instr: zz | Data_Mem: zz | Wr_En: z | Mux_Sel: 0 | PC_En: 0 | SKZ: z | JUMP: z
Time: 407000 | PC_out: 7 | Opcode: 001 | Operand: zzzzz | Accumulator: z | ALU_Result: z | Instr: zz | Data_Mem: zz | Wr_En: z | Mux_Sel: 0 | PC_En: 0 | SKZ: z | JUMP: z
Time: 433000 | PC_out: 7 | Opcode: 001 | Operand: zzzzz | Accumulator: z | ALU_Result: z | Instr: zz | Data_Mem: zz | Wr_En: z | Mux_Sel: 1 | PC_En: 0 | SKZ: z | JUMP: z
Time: 433000 | PC_out: 7 | Opcode: 001 | Operand: zzzzz | Accumulator: z | ALU_Result: z | Instr: zz | Data_Mem: zz | Wr_En: z | Mux_Sel: 1 | PC_En: 1 | SKZ: z | JUMP: z
Time: 437000 | PC_out: 9 | Opcode: 001 | Operand: zzzzz | Accumulator: z | ALU_Result: z | Instr: zz | Data_Mem: zz | Wr_En: z | Mux_Sel: 1 | PC_En: 1 | SKZ: z | JUMP: z
Time: 443000 | PC_out: 9 | Opcode: 001 | Operand: zzzzz | Accumulator: z | ALU_Result: z | Instr: zz | Data_Mem: zz | Wr_En: z | Mux_Sel: 1 | PC_En: 0 | SKZ: z | JUMP: z
Time: 453000 | PC_out: 9 | Opcode: 001 | Operand: zzzzz | Accumulator: z | ALU_Result: z | Instr: zz | Data_Mem: zz | Wr_En: z | Mux_Sel: 0 | PC_En: 0 | SKZ: z | JUMP: z
Time: 467000 | PC_out: 9 | Opcode: 000 | Operand: zzzzz | Accumulator: z | ALU_Result: z | Instr: zz | Data_Mem: zz | Wr_En: z | Mux_Sel: 0 | PC_En: 0 | SKZ: z | JUMP: z
WARNING: "D:/Vivado/2024.1/data/verilog/src/unisims/FDPE.v" Line 170: Timing violation in scope /RISC_CPU_tb/uut/CTRL/imem_enable_reg/TChk170_2199 at time 498165 ps $setuphold (posedge C,posedge D,(0:0:0),(0:0:0),notifier,in_clk_enable_p,in_clk_enable_p,C_dly,D_dly)  $setup violation detected. Time: 498165 ps, Data Event Time Stamp: 328165 ps, Ref Event Time Stamp: 497934 ps, Limit: -60 ps
WARNING: "D:/Vivado/2024.1/data/verilog/src/unisims/FDPE.v" Line 170: Timing violation in scope /RISC_CPU_tb/uut/CTRL/imem_enable_reg/TChk170_2199 at time 498165 ps $setuphold (posedge C,posedge D,(0:0:0),(0:0:0),notifier,in_clk_enable_p,in_clk_enable_p,C_dly,D_dly)  $hold violation detected. Time: 498165 ps, Ref Event Time Stamp: 497934 ps, Data Event Time Stamp: 498165 ps, Limit: 262 ps
Time: 503000 | PC_out: 9 | Opcode: 000 | Operand: zzzzz | Accumulator: z | ALU_Result: z | Instr: zz | Data_Mem: zz | Wr_En: z | Mux_Sel: 1 | PC_En: 0 | SKZ: z | JUMP: z
Time: 503000 | PC_out: 9 | Opcode: 000 | Operand: zzzzz | Accumulator: z | ALU_Result: z | Instr: zz | Data_Mem: zz | Wr_En: z | Mux_Sel: 1 | PC_En: 1 | SKZ: z | JUMP: z
Time: 507000 | PC_out: 10 | Opcode: 000 | Operand: zzzzz | Accumulator: z | ALU_Result: z | Instr: zz | Data_Mem: zz | Wr_En: z | Mux_Sel: 1 | PC_En: 1 | SKZ: z | JUMP: z
Time: 513000 | PC_out: 10 | Opcode: 000 | Operand: zzzzz | Accumulator: z | ALU_Result: z | Instr: zz | Data_Mem: zz | Wr_En: z | Mux_Sel: 0 | PC_En: 1 | SKZ: z | JUMP: z
Time: 513000 | PC_out: 10 | Opcode: 000 | Operand: zzzzz | Accumulator: z | ALU_Result: z | Instr: zz | Data_Mem: zz | Wr_En: z | Mux_Sel: 0 | PC_En: 0 | SKZ: z | JUMP: z
