TKLL_NHOM11-good_testbench/TKLL_TEAM_11.sim/sim_1/behav/xsim/RISC_CPU_tb.vcd
$date
   Sun Dec  1 17:50:38 2024
$end

$version
  2024.1
  $dumpfile ("RISC_CPU_tb.vcd") 
$end

$timescale
  1ps
$end

$scope module RISC_CPU_tb $end
$var reg 1 ! clk $end
$var reg 1 " rst $end
$scope module uut $end
$var wire 1 # clk $end
$var wire 1 $ rst $end
$var wire 5 % program_counter_out [4:0] $end
$var wire 5 & operand_address_out [4:0] $end
$var wire 8 ' instruction [7:0] $end
$var wire 3 ( opcode [2:0] $end
$var wire 5 ) operand_address [4:0] $end
$var wire 8 * memory_data [7:0] $end
$var wire 8 + alu_result [7:0] $end
$var wire 1 , is_zero $end
$var wire 8 - accumulator_out [7:0] $end
$var wire 5 . instruction_address [4:0] $end
$var wire 8 / alu_operand [7:0] $end
$var wire 1 0 pc_enable $end
$var wire 1 1 pc_select $end
$var wire 1 2 mux_select $end
$var wire 1 3 alu_enable $end
$var wire 1 4 acc_write $end
$var wire 1 5 acc_read $end
$var wire 1 6 data_mem_read $end
$var wire 1 7 data_mem_write $end
$var wire 1 8 instruction_mem_read $end
$var wire 1 9 load_ir $end
$var wire 1 : SKZ $end
$scope module PC $end
$var wire 1 # clk $end
$var wire 1 $ reset $end
$var wire 1 1 load $end
$var wire 1 , iszero $end
$var wire 1 : SKZ $end
$var wire 5 ) PC_LOAD [4:0] $end
$var reg 5 ; PC_out [4:0] $end
$var wire 5 < PC_plus_1 [4:0] $end
$var wire 5 = mux_out [4:0] $end
$upscope $end
$scope module AMUX $end
$var wire 5 % program_counter [4:0] $end
$var wire 5 ) operand_address_in [4:0] $end
$var wire 1 2 mux_select $end
$var reg 5 > instruction_address [4:0] $end
$var reg 5 ? operand_address_out [4:0] $end
$var wire 1 # clk $end
$upscope $end
$scope module IMEM $end
$var wire 1 # clk $end
$var wire 5 . addr [4:0] $end
$var reg 8 @ instruct [7:0] $end
$upscope $end
$scope module IR $end
$var wire 1 # clk $end
$var wire 1 $ rst $end
$var wire 1 9 load_instruct $end
$var wire 8 ' instruct_in [7:0] $end
$var reg 3 A opcode [2:0] $end
$var reg 5 B operand_address [4:0] $end
$upscope $end
$scope module DMEM $end
$var wire 1 # clk $end
$var wire 5 & addr [4:0] $end
$var wire 8 * data [7:0] $end
$var wire 1 7 wr_en $end
$var reg 8 C data_out [7:0] $end
$upscope $end
$scope module ACC $end
$var wire 1 # clk $end
$var wire 1 $ reset $end
$var wire 1 4 load_register $end
$var wire 8 + data_in [7:0] $end
$var reg 8 D data_out [7:0] $end
$upscope $end
$scope module ALU $end
$var wire 1 # clk $end
$var wire 3 ( opcode [2:0] $end
$var wire 8 * inB [7:0] $end
$var wire 8 - accumulator [7:0] $end
$var reg 8 E ALU_result [7:0] $end
$var reg 1 F is_zero $end
$upscope $end
$scope module CTRL $end
$var wire 1 # clk $end
$var wire 1 $ rst $end
$var wire 3 ( opcode [2:0] $end
$var wire 1 , is_zero $end
$var reg 1 G pc_enable $end
$var reg 1 H pc_select $end
$var reg 1 I signal $end
$var reg 1 J mux_select $end
$var reg 1 K data_mem_read $end
$var reg 1 L data_mem_write $end
$var reg 1 M instruction_mem_read $end
$var reg 1 N load_ir $end
$var reg 1 O alu_enable $end
$var reg 1 P acc_write $end
$var reg 1 Q acc_read $end
$var reg 4 R state [3:0] $end
$var reg 1 S SKZ $end
$var reg 4 T next_state [3:0] $end
$upscope $end
$upscope $end
$upscope $end
$enddefinitions $end

#0
$dumpvars
0!
1"
0#
1$
b0 %
bx &
bx '
b0 (
b0 )
bx *
bx +
x,
b0 -
bx .
bx /
x0
x1
x2
x3
x4
x5
x6
x7
x8
x9
x:
b0 ;
b1 <
b0x =
bx >
bx ?
bx @
b0 A
b0 B
bx C
b0 D
bx E
xF
xG
xH
xI
xJ
xK
xL
xM
xN
xO
xP
xQ
bx R
xS
bx T
$end

#5000
1!
1#
bz +
0,
b0 .
b0 /
00
01
02
03
04
05
06
07
08
09
0:
b1 =
b0 >
bz E
0F
0G
0H
0I
0J
0K
0L
0M
0N
0O
0P
0Q
b0 R
0S
b0 T

#10000
0!
0#

#15000
1!
0"
1#
0$
b1 %
b1000101 '
b1 ;
b10 <
b10 =
b1000101 @
b1 T

#20000
0!
0#

#25000
1!
1#
b10 %
b1 .
b10 ;
b11 <
b11 =
b1 >
b1 R

#30000
0!
0#

#35000
1!
1#
b11 %
b1100110 '
b10 .
10
12
18
b11 ;
b100 <
b100 =
b10 >
b1100110 @
1G
1J
1M
b10 T

#40000
0!
0#

#45000
1!
1#
b100 %
b0 &
b10101001 '
b100 ;
b101 <
b101 =
b0 ?
b10101001 @
b10 R

#50000
0!
0#

#55000
1!
1#
b101 %
b1000101 *
00
02
08
19
b101 ;
b110 <
b110 =
b1000101 C
0G
0J
0M
1N
b111 T

#60000
0!
0#

#65000
1!
1#
b110 %
b101 (
b1001 )
b101 .
b110 ;
b111 <
b111 =
b101 >
b101 A
b1001 B
b111 R

#70000
0!
0#

#75000
1!
1#
b111 %
b100000 '
b110 .
09
b111 ;
b1000 <
b1000 =
b110 >
b100000 @
0N
b111 T

#80000
0!
0#

#85000
1!
1#
b1000 %
b11100011 '
b111 .
b1000 ;
b1001 <
b1001 =
b111 >
b11100011 @

#90000
0!
0#

#95000
1!
1#
b1001 %
b1001110 '
b1000 .
b1001 ;
b1010 <
b1010 =
b1000 >
b1001110 @

#100000
0!
0#

#105000
1!
1#
b1010 %
bx '
b1001 .
b1010 ;
b1011 <
b1011 =
b1001 >
bx @

#110000
0!
0#

#115000
1!
1#
b1011 %
b1010 .
b1011 ;
b1100 <
b1100 =
b1010 >

#120000
0!
0#

#125000
1!
1#
b1100 %
b1011 .
b1100 ;
b1101 <
b1101 =
b1011 >

#130000
0!
0#

#135000
1!
1#
b1101 %
b1100 .
b1101 ;
b1110 <
b1110 =
b1100 >

#140000
0!
0#

#145000
1!
1#
b1110 %
b1101 .
b1110 ;
b1111 <
b1111 =
b1101 >

#150000
0!
0#

#155000
1!
1#
b1111 %
b1110 .
b1111 ;
b10000 <
b10000 =
b1110 >

#160000
0!
0#

#165000
1!
1#
b10000 %
b1111 .
b10000 ;
b10001 <
b10001 =
b1111 >

#170000
0!
0#

#175000
1!
1#
b10001 %
b10000 .
b10001 ;
b10010 <
b10010 =
b10000 >

#180000
0!
0#

#185000
1!
1#
b10010 %
b10001 .
b10010 ;
b10011 <
b10011 =
b10001 >

#190000
0!
0#

#195000
1!
1#
b10011 %
b10010 .
b10011 ;
b10100 <
b10100 =
b10010 >

#200000
0!
0#

#205000
1!
1#
b10100 %
b10011 .
b10100 ;
b10101 <
b10101 =
b10011 >

#210000
0!
0#

#215000
1!
1#
b10101 %
b10100 .
b10101 ;
b10110 <
b10110 =
b10100 >

#220000
0!
0#

#225000
1!
1#
b10110 %
b10101 .
b10110 ;
b10111 <
b10111 =
b10101 >

#230000
0!
0#

#235000
1!
1#
b10111 %
b10110 .
b10111 ;
b11000 <
b11000 =
b10110 >

#240000
0!
0#

#245000
1!
1#
b11000 %
b10111 .
b11000 ;
b11001 <
b11001 =
b10111 >

#250000
0!
0#

#255000
1!
1#
b11001 %
b11000 .
b11001 ;
b11010 <
b11010 =
b11000 >

#260000
0!
0#

#265000
1!
1#
b11010 %
b11001 .
b11010 ;
b11011 <
b11011 =
b11001 >

#270000
0!
0#

#275000
1!
1#
b11011 %
b11010 .
b11011 ;
b11100 <
b11100 =
b11010 >

#280000
0!
0#

#285000
1!
1#
b11100 %
b11011 .
b11100 ;
b11101 <
b11101 =
b11011 >

#290000
0!
0#

#295000
1!
1#
b11101 %
b11100 .
b11101 ;
b11110 <
b11110 =
b11100 >

#300000
0!
0#

#305000
1!
1#
b11110 %
b11101 .
b11110 ;
b11111 <
b11111 =
b11101 >

#310000
0!
0#

#315000
1!
1#
b11111 %
b11110 .
b11111 ;
b0 <
b0 =
b11110 >

#320000
0!
0#

#325000
1!
1#
b0 %
b11111 .
b0 ;
b1 <
b1 =
b11111 >

#330000
0!
0#

#335000
1!
1#
b1 %
b0 .
b1 ;
b10 <
b10 =
b0 >

#340000
0!
0#

#345000
1!
1#
b10 %
b1000101 '
b1 .
b10 ;
b11 <
b11 =
b1 >
b1000101 @

#350000
0!
0#

#355000
1!
1#
b11 %
b1100110 '
b10 .
b11 ;
b100 <
b100 =
b10 >
b1100110 @

#360000
0!
0#

#365000
1!
1#
b100 %
b10101001 '
b11 .
b100 ;
b101 <
b101 =
b11 >
b10101001 @

#370000
0!
0#

#375000
1!
1#
b101 %
b10001100 '
b100 .
b101 ;
b110 <
b110 =
b100 >
b10001100 @

#380000
0!
0#

#385000
1!
1#
b110 %
b11000101 '
b101 .
b110 ;
b111 <
b111 =
b101 >
b11000101 @

#390000
0!
0#

#395000
1!
1#
b111 %
b100000 '
b110 .
b111 ;
b1000 <
b1000 =
b110 >
b100000 @

#400000
0!
0#

#405000
1!
1#
b1000 %
b11100011 '
b111 .
b1000 ;
b1001 <
b1001 =
b111 >
b11100011 @

#410000
0!
0#

#415000
1!
1#
b1001 %
b1001110 '
b1000 .
b1001 ;
b1010 <
b1010 =
b1000 >
b1001110 @

#420000
0!
0#

#425000
1!
1#
b1010 %
bx '
b1001 .
b1010 ;
b1011 <
b1011 =
b1001 >
bx @

#430000
0!
0#

#435000
1!
1#
b1011 %
b1010 .
b1011 ;
b1100 <
b1100 =
b1010 >

#440000
0!
0#

#445000
1!
1#
b1100 %
b1011 .
b1100 ;
b1101 <
b1101 =
b1011 >

#450000
0!
0#

#455000
1!
1#
b1101 %
b1100 .
b1101 ;
b1110 <
b1110 =
b1100 >

#460000
0!
0#

#465000
1!
1#
b1110 %
b1101 .
b1110 ;
b1111 <
b1111 =
b1101 >

#470000
0!
0#

#475000
1!
1#
b1111 %
b1110 .
b1111 ;
b10000 <
b10000 =
b1110 >

#480000
0!
0#

#485000
1!
1#
b10000 %
b1111 .
b10000 ;
b10001 <
b10001 =
b1111 >

#490000
0!
0#

#495000
1!
1#
b10001 %
b10000 .
b10001 ;
b10010 <
b10010 =
b10000 >

#500000
0!
0#

#505000
1!
1#
b10010 %
b10001 .
b10010 ;
b10011 <
b10011 =
b10001 >

#510000
0!
0#

#515000
1!
1#
b10011 %
b10010 .
b10011 ;
b10100 <
b10100 =
b10010 >

#520000
0!
0#

#525000
1!
1#
b10100 %
b10011 .
b10100 ;
b10101 <
b10101 =
b10011 >

#530000
0!
0#

#535000
1!
1#
b10101 %
b10100 .
b10101 ;
b10110 <
b10110 =
b10100 >

#540000
0!
0#

#545000
1!
1#
b10110 %
b10101 .
b10110 ;
b10111 <
b10111 =
b10101 >

#550000
0!
0#

#555000
1!
1#
b10111 %
b10110 .
b10111 ;
b11000 <
b11000 =
b10110 >

#560000
0!
0#

#565000
1!
1#
b11000 %
b10111 .
b11000 ;
b11001 <
b11001 =
b10111 >

#570000
0!
0#

#575000
1!
1#
b11001 %
b11000 .
b11001 ;
b11010 <
b11010 =
b11000 >

#580000
0!
0#

#585000
1!
1#
b11010 %
b11001 .
b11010 ;
b11011 <
b11011 =
b11001 >

#590000
0!
0#

#595000
1!
1#
b11011 %
b11010 .
b11011 ;
b11100 <
b11100 =
b11010 >

#600000
0!
0#

#605000
1!
1#
b11100 %
b11011 .
b11100 ;
b11101 <
b11101 =
b11011 >

#610000
0!
0#

#615000
1!
1#
b11101 %
b11100 .
b11101 ;
b11110 <
b11110 =
b11100 >

#620000
0!
0#

#625000
1!
1#
b11110 %
b11101 .
b11110 ;
b11111 <
b11111 =
b11101 >

#630000
0!
0#

#635000
1!
1#
b11111 %
b11110 .
b11111 ;
b0 <
b0 =
b11110 >

#640000
0!
0#

#645000
1!
1#
b0 %
b11111 .
b0 ;
b1 <
b1 =
b11111 >

#650000
0!
0#

#655000
1!
1#
b1 %
b0 .
b1 ;
b10 <
b10 =
b0 >

#660000
0!
0#

#665000
1!
1#
b10 %
b1000101 '
b1 .
b10 ;
b11 <
b11 =
b1 >
b1000101 @

#670000
0!
0#

#675000
1!
1#
b11 %
b1100110 '
b10 .
b11 ;
b100 <
b100 =
b10 >
b1100110 @

#680000
0!
0#

#685000
1!
1#
b100 %
b10101001 '
b11 .
b100 ;
b101 <
b101 =
b11 >
b10101001 @

#690000
0!
0#

#695000
1!
1#
b101 %
b10001100 '
b100 .
b101 ;
b110 <
b110 =
b100 >
b10001100 @

#700000
0!
0#

#705000
1!
1#
b110 %
b11000101 '
b101 .
b110 ;
b111 <
b111 =
b101 >
b11000101 @

#710000
0!
0#

#715000
1!
1#
b111 %
b100000 '
b110 .
b111 ;
b1000 <
b1000 =
b110 >
b100000 @

#720000
0!
0#

#725000
1!
1#
b1000 %
b11100011 '
b111 .
b1000 ;
b1001 <
b1001 =
b111 >
b11100011 @

#730000
0!
0#

#735000
1!
1#
b1001 %
b1001110 '
b1000 .
b1001 ;
b1010 <
b1010 =
b1000 >
b1001110 @

#740000
0!
0#

#745000
1!
1#
b1010 %
bx '
b1001 .
b1010 ;
b1011 <
b1011 =
b1001 >
bx @

#750000
0!
0#

#755000
1!
1#
b1011 %
b1010 .
b1011 ;
b1100 <
b1100 =
b1010 >

#760000
0!
0#

#765000
1!
1#
b1100 %
b1011 .
b1100 ;
b1101 <
b1101 =
b1011 >

#770000
0!
0#

#775000
1!
1#
b1101 %
b1100 .
b1101 ;
b1110 <
b1110 =
b1100 >

#780000
0!
0#

#785000
1!
1#
b1110 %
b1101 .
b1110 ;
b1111 <
b1111 =
b1101 >

#790000
0!
0#

#795000
1!
1#
b1111 %
b1110 .
b1111 ;
b10000 <
b10000 =
b1110 >

#800000
0!
0#

#805000
1!
1#
b10000 %
b1111 .
b10000 ;
b10001 <
b10001 =
b1111 >

#810000
0!
0#

#815000
1!
1#
b10001 %
b10000 .
b10001 ;
b10010 <
b10010 =
b10000 >

#820000
0!
0#

#825000
1!
1#
b10010 %
b10001 .
b10010 ;
b10011 <
b10011 =
b10001 >

#830000
0!
0#

#835000
1!
1#
b10011 %
b10010 .
b10011 ;
b10100 <
b10100 =
b10010 >

#840000
0!
0#

#845000
1!
1#
b10100 %
b10011 .
b10100 ;
b10101 <
b10101 =
b10011 >

#850000
0!
0#

#855000
1!
1#
b10101 %
b10100 .
b10101 ;
b10110 <
b10110 =
b10100 >

#860000
0!
0#

#865000
1!
1#
b10110 %
b10101 .
b10110 ;
b10111 <
b10111 =
b10101 >

#870000
0!
0#

#875000
1!
1#
b10111 %
b10110 .
b10111 ;
b11000 <
b11000 =
b10110 >

#880000
0!
0#

#885000
1!
1#
b11000 %
b10111 .
b11000 ;
b11001 <
b11001 =
b10111 >

#890000
0!
0#

#895000
1!
1#
b11001 %
b11000 .
b11001 ;
b11010 <
b11010 =
b11000 >

#900000
0!
0#

#905000
1!
1#
b11010 %
b11001 .
b11010 ;
b11011 <
b11011 =
b11001 >

#910000
0!
0#

#915000
1!
1#
b11011 %
b11010 .
b11011 ;
b11100 <
b11100 =
b11010 >

#920000
0!
0#

#925000
1!
1#
b11100 %
b11011 .
b11100 ;
b11101 <
b11101 =
b11011 >

#930000
0!
0#

#935000
1!
1#
b11101 %
b11100 .
b11101 ;
b11110 <
b11110 =
b11100 >

#940000
0!
0#

#945000
1!
1#
b11110 %
b11101 .
b11110 ;
b11111 <
b11111 =
b11101 >

#950000
0!
0#

#955000
1!
1#
b11111 %
b11110 .
b11111 ;
b0 <
b0 =
b11110 >

#960000
0!
0#

#965000
1!
1#
b0 %
b11111 .
b0 ;
b1 <
b1 =
b11111 >

#970000
0!
0#

#975000
1!
1#
b1 %
b0 .
b1 ;
b10 <
b10 =
b0 >

#980000
0!
0#

#985000
1!
1#
b10 %
b1000101 '
b1 .
b10 ;
b11 <
b11 =
b1 >
b1000101 @

#990000
0!
0#

#995000
1!
1#
b11 %
b1100110 '
b10 .
b11 ;
b100 <
b100 =
b10 >
b1100110 @

