TKLL_NHOM11-good_testbench/TKLL_TEAM_11.sim/sim_1/behav/xsim/simulate.log
Time resolution is 1 ps
Memory initialized.
State: INIT (Reset)
run_PC
IR
ACCRES_PC
Time: 0 | PC_out: 0 | Opcode: zzz | Operand: zzzzz | Accumulator: z | ALU_Result: z | Instr: zz | Data_Mem: zz | Wr_En: z | Mux_Sel: 0 | PC_En: 0 | SKZ: z | JUMP: z
State: INIT (Reset)
run_PC
run_MUX
IM_PC
IR
DMEM_ACTIVE
ACCRES_PC
State: INIT
run_PC
run_MUX
IM_PC
IR
DMEM_ACTIVE
ACCRES_PC
Time: 15000 | PC_out: 0 | Opcode: zzz | Operand: zzzzz | Accumulator: z | ALU_Result: z | Instr: zz | Data_Mem: zz | Wr_En: z | Mux_Sel: 1 | PC_En: 0 | SKZ: z | JUMP: z
State: FETCH
run_PC
run_MUX
IM_PC
IR
DMEM_ACTIVE
ACCRES_PC
Time: 25000 | PC_out: 0 | Opcode: xxx | Operand: zzzzz | Accumulator: z | ALU_Result: z | Instr: zz | Data_Mem: zz | Wr_En: z | Mux_Sel: 0 | PC_En: 0 | SKZ: z | JUMP: z
State: LOAD_IR_DECODE
run_PC
run_MUX
IM_PC
IR
DMEM_ACTIVE
ACCRES_PC
Time: 35000 | PC_out: 0 | Opcode: 111 | Operand: zzzzz | Accumulator: z | ALU_Result: z | Instr: zz | Data_Mem: zz | Wr_En: z | Mux_Sel: 0 | PC_En: 0 | SKZ: z | JUMP: z
run_PC
run_MUX
IM_PC
IR
DMEM_ACTIVE
ACCRES_PC
MEM_READ
run_PC
run_MUX
IM_PC
IR
DMEM_ACTIVE
ACCRES_PC
Time: 55000 | PC_out: 0 | Opcode: 111 | Operand: zzzzz | Accumulator: z | ALU_Result: z | Instr: zz | Data_Mem: zz | Wr_En: z | Mux_Sel: 0 | PC_En: 1 | SKZ: z | JUMP: z
State: JUMP
run_PC
PC.v: pc_enable = 1, PC_out = 00000
run_MUX
IM_PC
IR
DMEM_ACTIVE
ACCRES_PC
Time: 65000 | PC_out: 30 | Opcode: 111 | Operand: zzzzz | Accumulator: z | ALU_Result: z | Instr: zz | Data_Mem: zz | Wr_En: z | Mux_Sel: 1 | PC_En: 0 | SKZ: z | JUMP: z
State: FETCH
run_PC
run_MUX
IM_PC
IR
DMEM_ACTIVE
ACCRES_PC
Time: 75000 | PC_out: 30 | Opcode: 111 | Operand: zzzzz | Accumulator: z | ALU_Result: z | Instr: zz | Data_Mem: zz | Wr_En: z | Mux_Sel: 0 | PC_En: 0 | SKZ: z | JUMP: z
State: LOAD_IR_DECODE
run_PC
run_MUX
IM_PC
IR
DMEM_ACTIVE
ACCRES_PC
run_PC
run_MUX
IM_PC
IR
DMEM_ACTIVE
ACCRES_PC
MEM_READ
run_PC
run_MUX
IM_PC
IR
DMEM_ACTIVE
ACCRES_PC
Time: 105000 | PC_out: 30 | Opcode: 111 | Operand: zzzzz | Accumulator: z | ALU_Result: z | Instr: zz | Data_Mem: zz | Wr_En: z | Mux_Sel: 0 | PC_En: 1 | SKZ: z | JUMP: z
State: JUMP
run_PC
PC.v: pc_enable = 1, PC_out = 11110
run_MUX
IM_PC
IR
DMEM_ACTIVE
ACCRES_PC
Time: 115000 | PC_out: 3 | Opcode: 111 | Operand: zzzzz | Accumulator: z | ALU_Result: z | Instr: zz | Data_Mem: zz | Wr_En: z | Mux_Sel: 1 | PC_En: 0 | SKZ: z | JUMP: z
State: FETCH
run_PC
run_MUX
IM_PC
IR
DMEM_ACTIVE
ACCRES_PC
Time: 125000 | PC_out: 3 | Opcode: 111 | Operand: zzzzz | Accumulator: z | ALU_Result: z | Instr: zz | Data_Mem: zz | Wr_En: z | Mux_Sel: 0 | PC_En: 0 | SKZ: z | JUMP: z
State: LOAD_IR_DECODE
run_PC
run_MUX
IM_PC
IR
DMEM_ACTIVE
ACCRES_PC
Time: 135000 | PC_out: 3 | Opcode: 101 | Operand: zzzzz | Accumulator: z | ALU_Result: z | Instr: zz | Data_Mem: zz | Wr_En: z | Mux_Sel: 0 | PC_En: 0 | SKZ: z | JUMP: z
run_PC
run_MUX
IM_PC
IR
DMEM_ACTIVE
ACCRES_PC
MEM_READ
run_PC
run_MUX
IM_PC
IR
DMEM_ACTIVE
ACCRES_PC
ALU
run_PC
run_MUX
IM_PC
IR
DMEM_ACTIVE
ALU_ACTIVE
ACCRES_PC
State: LOAD_ACC
run_PC
run_MUX
IM_PC
IR
DMEM_ACTIVE
ALU_ACTIVE
ACCRES_PC
Time: 175000 | PC_out: 3 | Opcode: 101 | Operand: zzzzz | Accumulator: z | ALU_Result: z | Instr: zz | Data_Mem: zz | Wr_En: z | Mux_Sel: 1 | PC_En: 1 | SKZ: z | JUMP: z
State: FETCH
run_PC
PC.v: pc_enable = 1, PC_out = 00011
run_MUX
IR
DMEM_ACTIVE
ACCRES_PC
Time: 185000 | PC_out: 4 | Opcode: 101 | Operand: zzzzz | Accumulator: z | ALU_Result: z | Instr: zz | Data_Mem: zz | Wr_En: z | Mux_Sel: 0 | PC_En: 0 | SKZ: z | JUMP: z
State: LOAD_IR_DECODE
run_PC
run_MUX
IM_PC
IR
DMEM_ACTIVE
ACCRES_PC
run_PC
run_MUX
IM_PC
IR
DMEM_ACTIVE
ACCRES_PC
Time: 205000 | PC_out: 4 | Opcode: 001 | Operand: zzzzz | Accumulator: z | ALU_Result: z | Instr: zz | Data_Mem: zz | Wr_En: z | Mux_Sel: 0 | PC_En: 0 | SKZ: z | JUMP: z
Opcode: SKZ (Skip if zero)
MEM_READ
run_PC
run_MUX
IM_PC
IR
DMEM_ACTIVE
ACCRES_PC
Time: 215000 | PC_out: 4 | Opcode: 001 | Operand: zzzzz | Accumulator: z | ALU_Result: z | Instr: zz | Data_Mem: zz | Wr_En: z | Mux_Sel: 1 | PC_En: 1 | SKZ: z | JUMP: z
State: SKZ
run_PC
PC.v: pc_enable = 1, PC_out = 00100
run_MUX
IM_PC
IR
DMEM_ACTIVE
ACCRES_PC
Time: 225000 | PC_out: 6 | Opcode: 001 | Operand: zzzzz | Accumulator: z | ALU_Result: z | Instr: zz | Data_Mem: zz | Wr_En: z | Mux_Sel: 1 | PC_En: 0 | SKZ: z | JUMP: z
State: FETCH
run_PC
run_MUX
IM_PC
IR
DMEM_ACTIVE
ACCRES_PC
Time: 235000 | PC_out: 6 | Opcode: 101 | Operand: zzzzz | Accumulator: z | ALU_Result: z | Instr: zz | Data_Mem: zz | Wr_En: z | Mux_Sel: 0 | PC_En: 0 | SKZ: z | JUMP: z
State: LOAD_IR_DECODE
run_PC
run_MUX
IM_PC
IR
DMEM_ACTIVE
ACCRES_PC
run_PC
run_MUX
IM_PC
IR
DMEM_ACTIVE
ACCRES_PC
MEM_READ
run_PC
run_MUX
IM_PC
IR
DMEM_ACTIVE
ACCRES_PC
ALU
run_PC
run_MUX
IM_PC
IR
DMEM_ACTIVE
ALU_ACTIVE
ACCRES_PC
State: LOAD_ACC
run_PC
run_MUX
IM_PC
IR
DMEM_ACTIVE
ALU_ACTIVE
ACCRES_PC
Time: 285000 | PC_out: 6 | Opcode: 101 | Operand: zzzzz | Accumulator: z | ALU_Result: z | Instr: zz | Data_Mem: zz | Wr_En: z | Mux_Sel: 1 | PC_En: 1 | SKZ: z | JUMP: z
State: FETCH
run_PC
PC.v: pc_enable = 1, PC_out = 00110
run_MUX
IR
DMEM_ACTIVE
ACCRES_PC
Time: 295000 | PC_out: 7 | Opcode: 101 | Operand: zzzzz | Accumulator: z | ALU_Result: z | Instr: zz | Data_Mem: zz | Wr_En: z | Mux_Sel: 0 | PC_En: 0 | SKZ: z | JUMP: z
State: LOAD_IR_DECODE
run_PC
run_MUX
IM_PC
IR
DMEM_ACTIVE
ACCRES_PC
run_PC
run_MUX
IM_PC
IR
DMEM_ACTIVE
ACCRES_PC
Time: 315000 | PC_out: 7 | Opcode: 001 | Operand: zzzzz | Accumulator: z | ALU_Result: z | Instr: zz | Data_Mem: zz | Wr_En: z | Mux_Sel: 0 | PC_En: 0 | SKZ: z | JUMP: z
Opcode: SKZ (Skip if zero)
MEM_READ
run_PC
run_MUX
IM_PC
IR
DMEM_ACTIVE
ACCRES_PC
Time: 325000 | PC_out: 7 | Opcode: 001 | Operand: zzzzz | Accumulator: z | ALU_Result: z | Instr: zz | Data_Mem: zz | Wr_En: z | Mux_Sel: 1 | PC_En: 1 | SKZ: z | JUMP: z
State: SKZ
run_PC
PC.v: pc_enable = 1, PC_out = 00111
run_MUX
IM_PC
IR
DMEM_ACTIVE
ACCRES_PC
Time: 335000 | PC_out: 8 | Opcode: 001 | Operand: zzzzz | Accumulator: z | ALU_Result: z | Instr: zz | Data_Mem: zz | Wr_En: z | Mux_Sel: 1 | PC_En: 0 | SKZ: z | JUMP: z
State: FETCH
run_PC
run_MUX
IM_PC
IR
DMEM_ACTIVE
ACCRES_PC
Time: 345000 | PC_out: 8 | Opcode: 111 | Operand: zzzzz | Accumulator: z | ALU_Result: z | Instr: zz | Data_Mem: zz | Wr_En: z | Mux_Sel: 0 | PC_En: 0 | SKZ: z | JUMP: z
State: LOAD_IR_DECODE
run_PC
run_MUX
IM_PC
IR
DMEM_ACTIVE
ACCRES_PC
run_PC
run_MUX
IM_PC
IR
DMEM_ACTIVE
ACCRES_PC
MEM_READ
run_PC
run_MUX
IM_PC
IR
DMEM_ACTIVE
ACCRES_PC
Time: 375000 | PC_out: 8 | Opcode: 111 | Operand: zzzzz | Accumulator: z | ALU_Result: z | Instr: zz | Data_Mem: zz | Wr_En: z | Mux_Sel: 0 | PC_En: 1 | SKZ: z | JUMP: z
State: JUMP
run_PC
PC.v: pc_enable = 1, PC_out = 01000
run_MUX
IM_PC
IR
DMEM_ACTIVE
ACCRES_PC
Time: 385000 | PC_out: 10 | Opcode: 111 | Operand: zzzzz | Accumulator: z | ALU_Result: z | Instr: zz | Data_Mem: zz | Wr_En: z | Mux_Sel: 1 | PC_En: 0 | SKZ: z | JUMP: z
State: FETCH
run_PC
run_MUX
IM_PC
IR
DMEM_ACTIVE
ACCRES_PC
Time: 395000 | PC_out: 10 | Opcode: 111 | Operand: zzzzz | Accumulator: z | ALU_Result: z | Instr: zz | Data_Mem: zz | Wr_En: z | Mux_Sel: 0 | PC_En: 0 | SKZ: z | JUMP: z
State: LOAD_IR_DECODE
run_PC
run_MUX
IM_PC
IR
DMEM_ACTIVE
ACCRES_PC
Time: 405000 | PC_out: 10 | Opcode: 110 | Operand: zzzzz | Accumulator: z | ALU_Result: z | Instr: zz | Data_Mem: zz | Wr_En: z | Mux_Sel: 0 | PC_En: 0 | SKZ: z | JUMP: z
run_PC
run_MUX
IM_PC
IR
DMEM_ACTIVE
ACCRES_PC
MEM_READ
run_PC
run_MUX
IM_PC
IR
DMEM_ACTIVE
ACCRES_PC
State: WRITE_BACK
run_PC
run_MUX
IM_PC
IR
DMEM_ACTIVE
ACCRES_PC
Time: 435000 | PC_out: 10 | Opcode: 110 | Operand: zzzzz | Accumulator: z | ALU_Result: z | Instr: zz | Data_Mem: zz | Wr_En: z | Mux_Sel: 1 | PC_En: 1 | SKZ: z | JUMP: z
State: FETCH
run_PC
PC.v: pc_enable = 1, PC_out = 01010
run_MUX
IR
DMEM_ACTIVE
ACCRES_PC
Time: 445000 | PC_out: 11 | Opcode: 110 | Operand: zzzzz | Accumulator: z | ALU_Result: z | Instr: zz | Data_Mem: zz | Wr_En: z | Mux_Sel: 0 | PC_En: 0 | SKZ: z | JUMP: z
State: LOAD_IR_DECODE
run_PC
run_MUX
IM_PC
IR
DMEM_ACTIVE
ACCRES_PC
run_PC
run_MUX
IM_PC
IR
DMEM_ACTIVE
ACCRES_PC
Time: 465000 | PC_out: 11 | Opcode: 101 | Operand: zzzzz | Accumulator: z | ALU_Result: z | Instr: zz | Data_Mem: zz | Wr_En: z | Mux_Sel: 0 | PC_En: 0 | SKZ: z | JUMP: z
MEM_READ
run_PC
run_MUX
IM_PC
IR
DMEM_ACTIVE
ACCRES_PC
ALU
run_PC
run_MUX
IM_PC
IR
DMEM_ACTIVE
ALU_ACTIVE
ACCRES_PC
State: LOAD_ACC
run_PC
run_MUX
IM_PC
IR
DMEM_ACTIVE
ALU_ACTIVE
ACCRES_PC
Time: 495000 | PC_out: 11 | Opcode: 101 | Operand: zzzzz | Accumulator: z | ALU_Result: z | Instr: zz | Data_Mem: zz | Wr_En: z | Mux_Sel: 1 | PC_En: 1 | SKZ: z | JUMP: z
State: FETCH
run_PC
PC.v: pc_enable = 1, PC_out = 01011
run_MUX
IR
DMEM_ACTIVE
ACCRES_PC
Time: 505000 | PC_out: 12 | Opcode: 101 | Operand: zzzzz | Accumulator: z | ALU_Result: z | Instr: zz | Data_Mem: zz | Wr_En: z | Mux_Sel: 0 | PC_En: 0 | SKZ: z | JUMP: z
State: LOAD_IR_DECODE
run_PC
run_MUX
IM_PC
IR
DMEM_ACTIVE
ACCRES_PC
run_PC
run_MUX
IM_PC
IR
DMEM_ACTIVE
ACCRES_PC
Time: 525000 | PC_out: 12 | Opcode: 110 | Operand: zzzzz | Accumulator: z | ALU_Result: z | Instr: zz | Data_Mem: zz | Wr_En: z | Mux_Sel: 0 | PC_En: 0 | SKZ: z | JUMP: z
MEM_READ
run_PC
run_MUX
IM_PC
IR
DMEM_ACTIVE
ACCRES_PC
State: WRITE_BACK
run_PC
run_MUX
IM_PC
IR
DMEM_ACTIVE
ACCRES_PC
Time: 545000 | PC_out: 12 | Opcode: 110 | Operand: zzzzz | Accumulator: z | ALU_Result: z | Instr: zz | Data_Mem: zz | Wr_En: z | Mux_Sel: 1 | PC_En: 1 | SKZ: z | JUMP: z
State: FETCH
run_PC
PC.v: pc_enable = 1, PC_out = 01100
run_MUX
IR
DMEM_ACTIVE
ACCRES_PC
Time: 555000 | PC_out: 13 | Opcode: 110 | Operand: zzzzz | Accumulator: z | ALU_Result: z | Instr: zz | Data_Mem: zz | Wr_En: z | Mux_Sel: 0 | PC_En: 0 | SKZ: z | JUMP: z
State: LOAD_IR_DECODE
run_PC
run_MUX
IM_PC
IR
DMEM_ACTIVE
ACCRES_PC
run_PC
run_MUX
IM_PC
IR
DMEM_ACTIVE
ACCRES_PC
Time: 575000 | PC_out: 13 | Opcode: 101 | Operand: zzzzz | Accumulator: z | ALU_Result: z | Instr: zz | Data_Mem: zz | Wr_En: z | Mux_Sel: 0 | PC_En: 0 | SKZ: z | JUMP: z
MEM_READ
run_PC
run_MUX
IM_PC
IR
DMEM_ACTIVE
ACCRES_PC
ALU
run_PC
run_MUX
IM_PC
IR
DMEM_ACTIVE
ALU_ACTIVE
ACCRES_PC
State: LOAD_ACC
run_PC
run_MUX
IM_PC
IR
DMEM_ACTIVE
ALU_ACTIVE
ACCRES_PC
Time: 605000 | PC_out: 13 | Opcode: 101 | Operand: zzzzz | Accumulator: z | ALU_Result: z | Instr: zz | Data_Mem: zz | Wr_En: z | Mux_Sel: 1 | PC_En: 1 | SKZ: z | JUMP: z
State: FETCH
run_PC
PC.v: pc_enable = 1, PC_out = 01101
run_MUX
IR
DMEM_ACTIVE
ACCRES_PC
Time: 615000 | PC_out: 14 | Opcode: 101 | Operand: zzzzz | Accumulator: z | ALU_Result: z | Instr: zz | Data_Mem: zz | Wr_En: z | Mux_Sel: 0 | PC_En: 0 | SKZ: z | JUMP: z
State: LOAD_IR_DECODE
run_PC
run_MUX
IM_PC
IR
DMEM_ACTIVE
ACCRES_PC
run_PC
run_MUX
IM_PC
IR
DMEM_ACTIVE
ACCRES_PC
Time: 635000 | PC_out: 14 | Opcode: 001 | Operand: zzzzz | Accumulator: z | ALU_Result: z | Instr: zz | Data_Mem: zz | Wr_En: z | Mux_Sel: 0 | PC_En: 0 | SKZ: z | JUMP: z
Opcode: SKZ (Skip if zero)
MEM_READ
run_PC
run_MUX
IM_PC
IR
DMEM_ACTIVE
ACCRES_PC
Time: 645000 | PC_out: 14 | Opcode: 001 | Operand: zzzzz | Accumulator: z | ALU_Result: z | Instr: zz | Data_Mem: zz | Wr_En: z | Mux_Sel: 1 | PC_En: 1 | SKZ: z | JUMP: z
State: SKZ
run_PC
PC.v: pc_enable = 1, PC_out = 01110
run_MUX
IM_PC
IR
DMEM_ACTIVE
ACCRES_PC
Time: 655000 | PC_out: 16 | Opcode: 001 | Operand: zzzzz | Accumulator: z | ALU_Result: z | Instr: zz | Data_Mem: zz | Wr_En: z | Mux_Sel: 1 | PC_En: 0 | SKZ: z | JUMP: z
State: FETCH
run_PC
run_MUX
IM_PC
IR
DMEM_ACTIVE
ACCRES_PC
Time: 665000 | PC_out: 16 | Opcode: 100 | Operand: zzzzz | Accumulator: z | ALU_Result: z | Instr: zz | Data_Mem: zz | Wr_En: z | Mux_Sel: 0 | PC_En: 0 | SKZ: z | JUMP: z
State: LOAD_IR_DECODE
run_PC
run_MUX
IM_PC
IR
DMEM_ACTIVE
ACCRES_PC
run_PC
run_MUX
IM_PC
IR
DMEM_ACTIVE
ACCRES_PC
MEM_READ
run_PC
run_MUX
IM_PC
IR
DMEM_ACTIVE
ACCRES_PC
ALU
run_PC
run_MUX
IM_PC
IR
ACCRES_PC
State: LOAD_ACC
run_PC
run_MUX
IM_PC
IR
DMEM_ACTIVE
ALU_ACTIVE
ACCRES_PC
Time: 715000 | PC_out: 16 | Opcode: 100 | Operand: zzzzz | Accumulator: z | ALU_Result: z | Instr: zz | Data_Mem: zz | Wr_En: z | Mux_Sel: 1 | PC_En: 1 | SKZ: z | JUMP: z
State: FETCH
run_PC
PC.v: pc_enable = 1, PC_out = 10000
run_MUX
IR
DMEM_ACTIVE
ACCRES_PC
Time: 725000 | PC_out: 17 | Opcode: 100 | Operand: zzzzz | Accumulator: z | ALU_Result: z | Instr: zz | Data_Mem: zz | Wr_En: z | Mux_Sel: 0 | PC_En: 0 | SKZ: z | JUMP: z
State: LOAD_IR_DECODE
run_PC
run_MUX
IM_PC
IR
DMEM_ACTIVE
ACCRES_PC
run_PC
run_MUX
IM_PC
IR
DMEM_ACTIVE
ACCRES_PC
Time: 745000 | PC_out: 17 | Opcode: 001 | Operand: zzzzz | Accumulator: z | ALU_Result: z | Instr: zz | Data_Mem: zz | Wr_En: z | Mux_Sel: 0 | PC_En: 0 | SKZ: z | JUMP: z
Opcode: SKZ (Skip if zero)
MEM_READ
run_PC
run_MUX
IM_PC
IR
DMEM_ACTIVE
ACCRES_PC
Time: 755000 | PC_out: 17 | Opcode: 001 | Operand: zzzzz | Accumulator: z | ALU_Result: z | Instr: zz | Data_Mem: zz | Wr_En: z | Mux_Sel: 1 | PC_En: 1 | SKZ: z | JUMP: z
State: SKZ
run_PC
PC.v: pc_enable = 1, PC_out = 10001
run_MUX
IM_PC
IR
DMEM_ACTIVE
ACCRES_PC
Time: 765000 | PC_out: 18 | Opcode: 001 | Operand: zzzzz | Accumulator: z | ALU_Result: z | Instr: zz | Data_Mem: zz | Wr_En: z | Mux_Sel: 1 | PC_En: 0 | SKZ: z | JUMP: z
State: FETCH
run_PC
run_MUX
IM_PC
IR
DMEM_ACTIVE
ACCRES_PC
Time: 775000 | PC_out: 18 | Opcode: 111 | Operand: zzzzz | Accumulator: z | ALU_Result: z | Instr: zz | Data_Mem: zz | Wr_En: z | Mux_Sel: 0 | PC_En: 0 | SKZ: z | JUMP: z
State: LOAD_IR_DECODE
run_PC
run_MUX
IM_PC
IR
DMEM_ACTIVE
ACCRES_PC
run_PC
run_MUX
IM_PC
IR
DMEM_ACTIVE
ACCRES_PC
MEM_READ
run_PC
run_MUX
IM_PC
IR
DMEM_ACTIVE
ACCRES_PC
Time: 805000 | PC_out: 18 | Opcode: 111 | Operand: zzzzz | Accumulator: z | ALU_Result: z | Instr: zz | Data_Mem: zz | Wr_En: z | Mux_Sel: 0 | PC_En: 1 | SKZ: z | JUMP: z
State: JUMP
run_PC
PC.v: pc_enable = 1, PC_out = 10010
run_MUX
IM_PC
IR
DMEM_ACTIVE
ACCRES_PC
Time: 815000 | PC_out: 20 | Opcode: 111 | Operand: zzzzz | Accumulator: z | ALU_Result: z | Instr: zz | Data_Mem: zz | Wr_En: z | Mux_Sel: 1 | PC_En: 0 | SKZ: z | JUMP: z
State: FETCH
run_PC
run_MUX
IM_PC
IR
DMEM_ACTIVE
ACCRES_PC
Time: 825000 | PC_out: 20 | Opcode: 111 | Operand: zzzzz | Accumulator: z | ALU_Result: z | Instr: zz | Data_Mem: zz | Wr_En: z | Mux_Sel: 0 | PC_En: 0 | SKZ: z | JUMP: z
State: LOAD_IR_DECODE
run_PC
run_MUX
IM_PC
IR
DMEM_ACTIVE
ACCRES_PC
Time: 835000 | PC_out: 20 | Opcode: 100 | Operand: zzzzz | Accumulator: z | ALU_Result: z | Instr: zz | Data_Mem: zz | Wr_En: z | Mux_Sel: 0 | PC_En: 0 | SKZ: z | JUMP: z
run_PC
run_MUX
IM_PC
IR
DMEM_ACTIVE
ACCRES_PC
MEM_READ
run_PC
run_MUX
IM_PC
IR
DMEM_ACTIVE
ACCRES_PC
ALU
run_PC
run_MUX
IM_PC
IR
ACCRES_PC
State: LOAD_ACC
run_PC
run_MUX
IM_PC
IR
DMEM_ACTIVE
ALU_ACTIVE
ACCRES_PC
Time: 875000 | PC_out: 20 | Opcode: 100 | Operand: zzzzz | Accumulator: z | ALU_Result: z | Instr: zz | Data_Mem: zz | Wr_En: z | Mux_Sel: 1 | PC_En: 1 | SKZ: z | JUMP: z
State: FETCH
run_PC
PC.v: pc_enable = 1, PC_out = 10100
run_MUX
IR
DMEM_ACTIVE
ACCRES_PC
Time: 885000 | PC_out: 21 | Opcode: 100 | Operand: zzzzz | Accumulator: z | ALU_Result: z | Instr: zz | Data_Mem: zz | Wr_En: z | Mux_Sel: 0 | PC_En: 0 | SKZ: z | JUMP: z
State: LOAD_IR_DECODE
run_PC
run_MUX
IM_PC
IR
DMEM_ACTIVE
ACCRES_PC
run_PC
run_MUX
IM_PC
IR
DMEM_ACTIVE
ACCRES_PC
Time: 905000 | PC_out: 21 | Opcode: 001 | Operand: zzzzz | Accumulator: z | ALU_Result: z | Instr: zz | Data_Mem: zz | Wr_En: z | Mux_Sel: 0 | PC_En: 0 | SKZ: z | JUMP: z
Opcode: SKZ (Skip if zero)
MEM_READ
run_PC
run_MUX
IM_PC
IR
DMEM_ACTIVE
ACCRES_PC
Time: 915000 | PC_out: 21 | Opcode: 001 | Operand: zzzzz | Accumulator: z | ALU_Result: z | Instr: zz | Data_Mem: zz | Wr_En: z | Mux_Sel: 1 | PC_En: 1 | SKZ: z | JUMP: z
State: SKZ
run_PC
PC.v: pc_enable = 1, PC_out = 10101
run_MUX
IM_PC
IR
DMEM_ACTIVE
ACCRES_PC
Time: 925000 | PC_out: 23 | Opcode: 001 | Operand: zzzzz | Accumulator: z | ALU_Result: z | Instr: zz | Data_Mem: zz | Wr_En: z | Mux_Sel: 1 | PC_En: 0 | SKZ: z | JUMP: z
State: FETCH
run_PC
run_MUX
IM_PC
IR
DMEM_ACTIVE
ACCRES_PC
Time: 935000 | PC_out: 23 | Opcode: 000 | Operand: zzzzz | Accumulator: z | ALU_Result: z | Instr: zz | Data_Mem: zz | Wr_En: z | Mux_Sel: 0 | PC_En: 0 | SKZ: z | JUMP: z
State: LOAD_IR_DECODE
$finish called at time : 945 ns : File "C:/Users/Minh_Hung/Downloads/TKLL_NHOM11-good_testbench/TKLL_TEAM_11.srcs/sources_1/new/Controller.v" Line 92
