doan/project_ANH_NGHI.sim/sim_1/behav/xsim/simulate.log
Time resolution is 1 ps
Đọc file thành công!
Time: 0 | PC_out: 0 | Opcode: 000 | Operand: 00000 | Accumulator: 0 | ALU_Result: x | instruc: xx | data: xx | wr_en: x |operand_address:  0 | operand_address_out:  x | mux_select: x | pc_enable: x 
Time: 5000 | PC_out: 0 | Opcode: 000 | Operand: 00000 | Accumulator: 0 | ALU_Result: z | instruc: xx | data: xx | wr_en: 0 |operand_address:  0 | operand_address_out:  x | mux_select: 0 | pc_enable: 0 
Time: 15000 | PC_out: 0 | Opcode: 000 | Operand: 00000 | Accumulator: 0 | ALU_Result: z | instruc: 45 | data: xx | wr_en: 0 |operand_address:  0 | operand_address_out:  0 | mux_select: 1 | pc_enable: 0 
Time: 25000 | PC_out: 0 | Opcode: 000 | Operand: 00000 | Accumulator: 0 | ALU_Result: z | instruc: 45 | data: 01 | wr_en: 0 |operand_address:  0 | operand_address_out:  0 | mux_select: 1 | pc_enable: 0 
Time: 45000 | PC_out: 0 | Opcode: 010 | Operand: 00101 | Accumulator: 0 | ALU_Result: z | instruc: 45 | data: 01 | wr_en: 0 |operand_address:  5 | operand_address_out:  0 | mux_select: 1 | pc_enable: 0 
Time: 55000 | PC_out: 0 | Opcode: 010 | Operand: 00101 | Accumulator: 0 | ALU_Result: 1 | instruc: 45 | data: 01 | wr_en: 0 |operand_address:  5 | operand_address_out:  0 | mux_select: 0 | pc_enable: 0 
Time: 65000 | PC_out: 0 | Opcode: 010 | Operand: 00101 | Accumulator: 0 | ALU_Result: 1 | instruc: 45 | data: 01 | wr_en: 0 |operand_address:  5 | operand_address_out:  5 | mux_select: 0 | pc_enable: 0 
Time: 75000 | PC_out: 0 | Opcode: 010 | Operand: 00101 | Accumulator: 0 | ALU_Result: 1 | instruc: 45 | data: 0a | wr_en: 0 |operand_address:  5 | operand_address_out:  5 | mux_select: 0 | pc_enable: 0 
Time: 85000 | PC_out: 0 | Opcode: 010 | Operand: 00101 | Accumulator: 0 | ALU_Result: 10 | instruc: 45 | data: 0a | wr_en: 0 |operand_address:  5 | operand_address_out:  5 | mux_select: 0 | pc_enable: 0 
Time: 95000 | PC_out: 0 | Opcode: 010 | Operand: 00101 | Accumulator: 0 | ALU_Result: 10 | instruc: 45 | data: 0a | wr_en: 0 |operand_address:  5 | operand_address_out:  5 | mux_select: 0 | pc_enable: 1 
Time: 105000 | PC_out: 1 | Opcode: 010 | Operand: 00101 | Accumulator: 10 | ALU_Result: 10 | instruc: 45 | data: 0a | wr_en: 0 |operand_address:  5 | operand_address_out:  5 | mux_select: 0 | pc_enable: 1 
Time: 115000 | PC_out: 2 | Opcode: 010 | Operand: 00101 | Accumulator: 10 | ALU_Result: 20 | instruc: 45 | data: 0a | wr_en: 0 |operand_address:  5 | operand_address_out:  5 | mux_select: 1 | pc_enable: 0 
Time: 135000 | PC_out: 2 | Opcode: 010 | Operand: 00101 | Accumulator: 10 | ALU_Result: 20 | instruc: 87 | data: 0a | wr_en: 0 |operand_address:  5 | operand_address_out:  5 | mux_select: 0 | pc_enable: 0 
Time: 175000 | PC_out: 2 | Opcode: 010 | Operand: 00101 | Accumulator: 10 | ALU_Result: 20 | instruc: 87 | data: 0a | wr_en: 0 |operand_address:  5 | operand_address_out:  5 | mux_select: 0 | pc_enable: 1 
Time: 185000 | PC_out: 3 | Opcode: 010 | Operand: 00101 | Accumulator: 20 | ALU_Result: 20 | instruc: 87 | data: 0a | wr_en: 0 |operand_address:  5 | operand_address_out:  5 | mux_select: 0 | pc_enable: 1 
Time: 195000 | PC_out: 4 | Opcode: 010 | Operand: 00101 | Accumulator: 20 | ALU_Result: 30 | instruc: 87 | data: 0a | wr_en: 0 |operand_address:  5 | operand_address_out:  5 | mux_select: 1 | pc_enable: 0 
Time: 205000 | PC_out: 4 | Opcode: 100 | Operand: 00111 | Accumulator: 20 | ALU_Result: 30 | instruc: 87 | data: 0a | wr_en: 0 |operand_address:  7 | operand_address_out:  5 | mux_select: 1 | pc_enable: 0 
Time: 215000 | PC_out: 4 | Opcode: 100 | Operand: 00111 | Accumulator: 20 | ALU_Result: 30 | instruc: xx | data: 0a | wr_en: 0 |operand_address:  7 | operand_address_out:  5 | mux_select: 0 | pc_enable: 0 
Time: 225000 | PC_out: 4 | Opcode: 100 | Operand: 00111 | Accumulator: 20 | ALU_Result: 30 | instruc: xx | data: 0a | wr_en: 0 |operand_address:  7 | operand_address_out:  7 | mux_select: 0 | pc_enable: 0 
Time: 235000 | PC_out: 4 | Opcode: 100 | Operand: 00111 | Accumulator: 20 | ALU_Result: 30 | instruc: xx | data: 0f | wr_en: 0 |operand_address:  7 | operand_address_out:  7 | mux_select: 0 | pc_enable: 0 
Time: 245000 | PC_out: 4 | Opcode: 100 | Operand: 00111 | Accumulator: 20 | ALU_Result: 27 | instruc: xx | data: 0f | wr_en: 0 |operand_address:  7 | operand_address_out:  7 | mux_select: 0 | pc_enable: 0 
Time: 255000 | PC_out: 4 | Opcode: 100 | Operand: 00111 | Accumulator: 20 | ALU_Result: 27 | instruc: xx | data: 0f | wr_en: 0 |operand_address:  7 | operand_address_out:  7 | mux_select: 0 | pc_enable: 1 
Time: 265000 | PC_out: 5 | Opcode: 100 | Operand: 00111 | Accumulator: 27 | ALU_Result: 27 | instruc: xx | data: 0f | wr_en: 0 |operand_address:  7 | operand_address_out:  7 | mux_select: 0 | pc_enable: 1 
Time: 275000 | PC_out: 6 | Opcode: 100 | Operand: 00111 | Accumulator: 27 | ALU_Result: 20 | instruc: xx | data: 0f | wr_en: 0 |operand_address:  7 | operand_address_out:  7 | mux_select: 1 | pc_enable: 0 
Time: 285000 | PC_out: 6 | Opcode: xxx | Operand: xxxxx | Accumulator: 27 | ALU_Result: 20 | instruc: xx | data: 0f | wr_en: 0 |operand_address:  x | operand_address_out:  7 | mux_select: 1 | pc_enable: 0 
Time: 295000 | PC_out: 6 | Opcode: xxx | Operand: xxxxx | Accumulator: 27 | ALU_Result: z | instruc: xx | data: 0f | wr_en: 0 |operand_address:  x | operand_address_out:  7 | mux_select: 0 | pc_enable: 0 
Time: 305000 | PC_out: 6 | Opcode: xxx | Operand: xxxxx | Accumulator: 27 | ALU_Result: z | instruc: xx | data: 0f | wr_en: 0 |operand_address:  x | operand_address_out:  x | mux_select: 0 | pc_enable: 0 
Time: 315000 | PC_out: 6 | Opcode: xxx | Operand: xxxxx | Accumulator: 27 | ALU_Result: z | instruc: xx | data: xx | wr_en: 0 |operand_address:  x | operand_address_out:  x | mux_select: 1 | pc_enable: 0 
Time: 355000 | PC_out: 6 | Opcode: xxx | Operand: xxxxx | Accumulator: 27 | ALU_Result: z | instruc: xx | data: xx | wr_en: 0 |operand_address:  x | operand_address_out:  x | mux_select: 0 | pc_enable: 0 
Time: 375000 | PC_out: 6 | Opcode: xxx | Operand: xxxxx | Accumulator: 27 | ALU_Result: z | instruc: xx | data: xx | wr_en: 0 |operand_address:  x | operand_address_out:  x | mux_select: 1 | pc_enable: 0 
Time: 415000 | PC_out: 6 | Opcode: xxx | Operand: xxxxx | Accumulator: 27 | ALU_Result: z | instruc: xx | data: xx | wr_en: 0 |operand_address:  x | operand_address_out:  x | mux_select: 0 | pc_enable: 0 
Time: 435000 | PC_out: 6 | Opcode: xxx | Operand: xxxxx | Accumulator: 27 | ALU_Result: z | instruc: xx | data: xx | wr_en: 0 |operand_address:  x | operand_address_out:  x | mux_select: 1 | pc_enable: 0 
Time: 475000 | PC_out: 6 | Opcode: xxx | Operand: xxxxx | Accumulator: 27 | ALU_Result: z | instruc: xx | data: xx | wr_en: 0 |operand_address:  x | operand_address_out:  x | mux_select: 0 | pc_enable: 0 
Time: 495000 | PC_out: 6 | Opcode: xxx | Operand: xxxxx | Accumulator: 27 | ALU_Result: z | instruc: xx | data: xx | wr_en: 0 |operand_address:  x | operand_address_out:  x | mux_select: 1 | pc_enable: 0 
Time: 535000 | PC_out: 6 | Opcode: xxx | Operand: xxxxx | Accumulator: 27 | ALU_Result: z | instruc: xx | data: xx | wr_en: 0 |operand_address:  x | operand_address_out:  x | mux_select: 0 | pc_enable: 0 
Time: 555000 | PC_out: 6 | Opcode: xxx | Operand: xxxxx | Accumulator: 27 | ALU_Result: z | instruc: xx | data: xx | wr_en: 0 |operand_address:  x | operand_address_out:  x | mux_select: 1 | pc_enable: 0 
Time: 595000 | PC_out: 6 | Opcode: xxx | Operand: xxxxx | Accumulator: 27 | ALU_Result: z | instruc: xx | data: xx | wr_en: 0 |operand_address:  x | operand_address_out:  x | mux_select: 0 | pc_enable: 0 
Time: 615000 | PC_out: 6 | Opcode: xxx | Operand: xxxxx | Accumulator: 27 | ALU_Result: z | instruc: xx | data: xx | wr_en: 0 |operand_address:  x | operand_address_out:  x | mux_select: 1 | pc_enable: 0 
Time: 655000 | PC_out: 6 | Opcode: xxx | Operand: xxxxx | Accumulator: 27 | ALU_Result: z | instruc: xx | data: xx | wr_en: 0 |operand_address:  x | operand_address_out:  x | mux_select: 0 | pc_enable: 0 
Time: 675000 | PC_out: 6 | Opcode: xxx | Operand: xxxxx | Accumulator: 27 | ALU_Result: z | instruc: xx | data: xx | wr_en: 0 |operand_address:  x | operan