doan/project_ANH_NGHI.sim/sim_1/behav/xsim/simulate.log
Time resolution is 1 ps
Đọc file thành công!
Time: 0 | PC_out: 0 | Opcode: 000 | Operand: 00000 | Accumulator: 0 | ALU_Result: x | instruc: xx | data: xx | wr_en: x |operand_address:  0 | operand_address_out:  x | mux_select: x | pc_enable: x 
Time: 5000 | PC_out: 0 | Opcode: 000 | Operand: 00000 | Accumulator: 0 | ALU_Result: z | instruc: 45 | data: xx | wr_en: 0 |operand_address:  0 | operand_address_out:  x | mux_select: 0 | pc_enable: 0 
IDLE
Time: 15000 | PC_out: 0 | Opcode: 000 | Operand: 00000 | Accumulator: 0 | ALU_Result: z | instruc: 45 | data: 01 | wr_en: 0 |operand_address:  0 | operand_address_out:  0 | mux_select: 1 | pc_enable: 0 
IDLE
FETCH
Controller.v : 0
FETCH
Controller.v : 0
Time: 45000 | PC_out: 0 | Opcode: 010 | Operand: 00101 | Accumulator: 0 | ALU_Result: z | instruc: 45 | data: 01 | wr_en: 0 |operand_address:  5 | operand_address_out:  0 | mux_select: 1 | pc_enable: 0 
DECODE
Time: 55000 | PC_out: 0 | Opcode: 010 | Operand: 00101 | Accumulator: 0 | ALU_Result: 1 | instruc: 45 | data: 01 | wr_en: 0 |operand_address:  5 | operand_address_out:  0 | mux_select: 0 | pc_enable: 0 
DECODE
Time: 65000 | PC_out: 0 | Opcode: 010 | Operand: 00101 | Accumulator: 0 | ALU_Result: 1 | instruc: 45 | data: 0a | wr_en: 0 |operand_address:  5 | operand_address_out:  5 | mux_select: 0 | pc_enable: 0 
EXCUTE
Time: 75000 | PC_out: 0 | Opcode: 010 | Operand: 00101 | Accumulator: 0 | ALU_Result: 10 | instruc: 45 | data: 0a | wr_en: 0 |operand_address:  5 | operand_address_out:  5 | mux_select: 0 | pc_enable: 0 
EXCUTE
WRITE_BACK
Time: 95000 | PC_out: 0 | Opcode: 010 | Operand: 00101 | Accumulator: 0 | ALU_Result: 10 | instruc: 45 | data: 0a | wr_en: 0 |operand_address:  5 | operand_address_out:  5 | mux_select: 0 | pc_enable: 1 
PC.v: 1
WRITE_BACK
Time: 105000 | PC_out: 1 | Opcode: 010 | Operand: 00101 | Accumulator: 10 | ALU_Result: 10 | instruc: 45 | data: 0a | wr_en: 0 |operand_address:  5 | operand_address_out:  5 | mux_select: 0 | pc_enable: 1 
PC.v: 1
FETCH
Controller.v : 1
Time: 115000 | PC_out: 2 | Opcode: 010 | Operand: 00101 | Accumulator: 10 | ALU_Result: 20 | instruc: 45 | data: 0a | wr_en: 0 |operand_address:  5 | operand_address_out:  5 | mux_select: 1 | pc_enable: 0 
FETCH
Controller.v : 0
Time: 125000 | PC_out: 2 | Opcode: 010 | Operand: 00101 | Accumulator: 10 | ALU_Result: 20 | instruc: 87 | data: 0a | wr_en: 0 |operand_address:  5 | operand_address_out:  5 | mux_select: 1 | pc_enable: 0 
DECODE
Time: 135000 | PC_out: 2 | Opcode: 100 | Operand: 00111 | Accumulator: 10 | ALU_Result: 20 | instruc: 87 | data: 0a | wr_en: 0 |operand_address:  7 | operand_address_out:  5 | mux_select: 0 | pc_enable: 0 
DECODE
Time: 145000 | PC_out: 2 | Opcode: 100 | Operand: 00111 | Accumulator: 10 | ALU_Result: 0 | instruc: 87 | data: 0f | wr_en: 0 |operand_address:  7 | operand_address_out:  7 | mux_select: 0 | pc_enable: 0 
EXCUTE
Time: 155000 | PC_out: 2 | Opcode: 100 | Operand: 00111 | Accumulator: 10 | ALU_Result: 5 | instruc: 87 | data: 0f | wr_en: 0 |operand_address:  7 | operand_address_out:  7 | mux_select: 0 | pc_enable: 0 
EXCUTE
WRITE_BACK
Time: 175000 | PC_out: 2 | Opcode: 100 | Operand: 00111 | Accumulator: 10 | ALU_Result: 5 | instruc: 87 | data: 0f | wr_en: 0 |operand_address:  7 | operand_address_out:  7 | mux_select: 0 | pc_enable: 1 
PC.v: 1
WRITE_BACK
Time: 185000 | PC_out: 3 | Opcode: 100 | Operand: 00111 | Accumulator: 5 | ALU_Result: 5 | instruc: 87 | data: 0f | wr_en: 0 |operand_address:  7 | operand_address_out:  7 | mux_select: 0 | pc_enable: 1 
PC.v: 1
FETCH
Controller.v : 1
Time: 195000 | PC_out: 4 | Opcode: 100 | Operand: 00111 | Accumulator: 5 | ALU_Result: 10 | instruc: 87 | data: 0f | wr_en: 0 |operand_address:  7 | operand_address_out:  7 | mux_select: 1 | pc_enable: 0 
FETCH
Controller.v : 0
Time: 205000 | PC_out: 4 | Opcode: 100 | Operand: 00111 | Accumulator: 5 | ALU_Result: 10 | instruc: xx | data: 0f | wr_en: 0 |operand_address:  7 | operand_address_out:  7 | mux_select: 1 | pc_enable: 0 
DECODE
Time: 215000 | PC_out: 4 | Opcode: xxx | Operand: xxxxx | Accumulator: 5 | ALU_Result: 10 | instruc: xx | data: 0f | wr_en: 0 |operand_address:  x | operand_address_out:  7 | mux_select: 0 | pc_enable: 0 
DECODE
Time: 225000 | PC_out: 4 | Opcode: xxx | Operand: xxxxx | Accumulator: 5 | ALU_Result: z | instruc: xx | data: xx | wr_en: 0 |operand_address:  x | operand_address_out:  x | mux_select: 0 | pc_enable: 0 
EXCUTE
IDLE
Time: 245000 | PC_out: 4 | Opcode: xxx | Operand: xxxxx | Accumulator: 5 | ALU_Result: z | instruc: xx | data: xx | wr_en: 0 |operand_address:  x | operand_address_out:  x | mux_select: 1 | pc_enable: 0 
WRITE_BACK
Time: 255000 | PC_out: 4 | Opcode: xxx | Operand: xxxxx | Accumulator: 5 | ALU_Result: z | instruc: xx | data: xx | wr_en: 0 |operand_address:  x | operand_address_out:  x | mux_select: 0 | pc_enable: 1 
PC.v: 1
FETCH
Controller.v : 1
Time: 265000 | PC_out: 5 | Opcode: xxx | Operand: xxxxx | Accumulator: z | ALU_Result: z | instruc: xx | data: xx | wr_en: 0 |operand_address:  x | operand_address_out:  x | mux_select: 1 | pc_enable: 0 
FETCH
Controller.v : 0
DECODE
Time: 285000 | PC_out: 5 | Opcode: xxx | Operand: xxxxx | Accumulator: z | ALU_Result: z | instruc: xx | data: xx | wr_en: 0 |operand_address:  x | operand_address_out:  x | mux_select: 0 | pc_enable: 0 
DECODE
IDLE
Time: 305000 | PC_out: 5 | Opcode: xxx | Operand: xxxxx | Accumulator: z | ALU_Result: z | instruc: xx | data: xx | wr_en: 0 |operand_address:  x | operand_address_out:  x | mux_select: 1 | pc_enable: 0 
IDLE
FETCH
Controller.v : 0
FETCH
Controller.v : 0
DECODE
Time: 345000 | PC_out: 5 | Opcode: xxx | Operand: xxxxx | Accumulator: z | ALU_Result: z | instruc: xx | data: xx | wr_en: 0 |operand_address:  x | operand_address_out:  x | mux_select: 0 | pc_enable: 0 
DECODE
IDLE
Time: 365000 | PC_out: 5 | Opcode: xxx | Operand: xxxxx | Accumulator: z | ALU_Result: z | instruc: xx | data: xx | wr_en: 0 |operand_address:  x | operand_address_out:  x | mux_select: 1 | pc_enable: 0 
IDLE
FETCH
Controller.v : 0
FETCH
Controller.v : 0
DECODE
Time: 405000 | PC_out: 5 | Opcode: xxx | Operand: xxxxx | Accumulator: z | ALU_Result: z | instruc: xx | data: xx | wr_en: 0 |operand_address:  x | operand_address_out:  x | mux_select: 0 | pc_enable: 0 
DECODE
IDLE
Time: 425000 | PC_out: 5 | Opcode: xxx | Operand: xxxxx | Accumulator: z | ALU_Result: z | instruc: xx | data: xx | wr_en: 0 |operand_address:  x | operand_address_out:  x | mux_select: 1 | pc_enable: 0 
IDLE
FETCH
Controller.v : 0
FETCH
Controller.v : 0
DECODE
Time: 465000 | PC_out: 5 | Opcode: xxx | Operand: xxxxx | Accumulator: z | ALU_Result: z | instruc: xx | data: xx | wr_en: 0 |operand_address:  x | operand_address_out:  x | mux_select: 0 | pc_enable: 0 
DECODE
IDLE
Time: 485000 | PC_out: 5 | Opcode: xxx | Operand: xxxxx | Accumulator: z | ALU_Result: z | instruc: xx | data: xx | wr_en: 0 |operand_address:  x | operand_address_out:  x | mux_select: 1 | pc_enable: 0 
IDLE
FETCH
Controller.v : 0
FETCH
Controller.v : 0
DECODE
Time: 525000 | PC_out: 5 | Opcode: xxx | Operand: xxxxx | Accumulator: z | ALU_Result: z | instruc: xx | data: xx | wr_en: 0 |operand_address:  x | operand_address_out:  x | mux_select: 0 | pc_enable: 0 
DECODE
IDLE
Time: 545000 | PC_out: 5 | Opcode: xxx | Operand: xxxxx | Accumulator: z | ALU_Result: z | instruc: xx | data: xx | wr_en: 0 |operand_address:  x | operand_address_out:  x | mux_select: 1 | pc_enable: 0 
IDLE
FETCH
Controller.v : 0
FETCH
Controller.v : 0
DECODE
Time: 585000 | PC_out: 5 | Opcode: xxx | Operand: xxxxx | Accumulator: z | ALU_Result: z | instruc: xx | data: xx | wr_en: 0 |operand_address:  x | operand_address_out:  x | mux_select: 0 | pc_enable: 0 
DECODE
IDLE
Time: 605000 | PC_out: 5 | Opcode: xxx | Operand: xxxxx | Accumulator: z | ALU_Result: z | instruc: xx | data: xx | wr_en: 0 |operand_address:  x | operand_address_out:  x | mux_select: 1 | pc_enable: 0 
IDLE
FETCH
Controller.v : 0
FETCH
Controller.v : 0
DECODE
Time: 645000 | PC_out: 5 | Opcode: xxx | Operand: xxxxx | Accumulator: z | ALU_Result: z | instruc: xx | data: xx | wr_en: 0 |operand_address:  x | operand_address_out:  x | mux_select: 0 | pc_enable: 